
"VertexLitGeneric"
{
	// Original shader: VertexLitTexture
	"$basetexture" "FFmdls/props_vehicles/car002a_01"
	"$surfaceprop" "solidmetal"
	"$envmap" "env_cubemap"
	"$basealphaenvmapmask" 1
}
