"magnetise"
{
	"title"				"Magnet Settings"
	
	"controls"
	{
		"slider"
		{
		  	"label"			"Magnet Strength"
	  	  	"name"			"gm_magnetstrength"
	  	  	"min"			"10"
	  	  	"max"			"100000"
		}
	}
}



