"VertexLitGeneric"
{

	"$baseTexture" "FFmdls/combine_apc/glass"
	"$translucent" 1
	"$alpha" 1
	"$envmapmask"	"FFmdls/combine_apc/glass_spec"
	"$envmap" "env_cubemap"
	"$envmaptint" "[ .75 .75 1]"
	"$envmapcontrast" 1
	"$envmapsaturation" 1
}
