"VertexLitGeneric"
{
	"$basetexture" "FFmdls/headcrab/allinonebacup2"
	"$envmap" "env_cubemap"
	"$normalmapalphaenvmapmask" 1
	"$bumpmap" "FFmdls/headcrab/allinonebacup2_normal"
	"$envmapcontrast" 1
}