"VertexLitGeneric"
{
	// Original shader: VertexLitMaskedEnvMappedTexture
	"$basetexture" "FFmdls/Kleiner/glassesside_walter"
	"$envmapmask" "FFmdls/Kleiner/glassessidemask_walter"
	"$envmap" "env_cubemap"
	"$envmapcontrast" "1"
	"$halflambert" 1
}
