"VertexLitGeneric"
{
	// Original shader: VertexLitMaskedEnvMappedTexture
	"$basetexture" "FFmdls/Kleiner/glassesfront_walter"
	"$envmapmask" "FFmdls/Kleiner/glassesfrontmask_walter"
	"$envmap" "env_cubemap"
	"$envmapcontrast" "1"
	"$halflambert" 1
}
