"gmod_renderfx.txt"
{
	"None"				"0"
	"Pulse Slow"		"1"
	"Pulse Fast" 		"2"
	"Pulse Slow Wide"	"3"
	"Pulse Fast Wide"	"4"
	"Fade Slow"			"5"
	"Fade Fast" 		"6"
	"Solid Slow"		"7"
	"Solid Fast" 	  	"8" 
	"Strobe Slow" 		"9"
	"Strobe Fast" 		"10"
	"Strobe Faster" 	"11"
	"Flicker Slow" 		"12"
	"Flicker Fast"		"13"
	"Distort"			"15"
	"Hologram"			"16"
	"PulseFastWider"	"25"
}