"HealthMelon"
{
	"classname"			"prop_physics"
	"type"				"prop"
	"keyvalues"
	{
	"model" "models/props_junk/watermelon01.mdl"
	"health" "10"
	"rendercolor" "150 255 100"

	"OnBreak" "!activator,sethealth,100"
	}
}