"VectorZero"
{
	"classname"			"prop_physics"
	"type"				"prop"
	"keyvalues"
	{
	"model" "models/props_junk/garbage_glassbottle001a.mdl"
	"health" "10"
	"rendercolor" "0 0 255"
	"MaterialOverride" "gmod/shiny"

	"OnBreak" "!activator,addoutput,origin 0 0 0"
	"OnBreak" "!activator,addoutput,origin 0 0 0,0.1"
	"OnBreak" "!activator,addoutput,origin 0 0 0,0.5"
	}
}