// envmaptint_fix
"VertexLitGeneric"
{
	"$baseTexture" "FFmdls/Mossman/mossman_sheet"
	"$envmap" 			"env_cubemap"
                "$bumpmap" "FFmdls/Mossman/Mossman_normal"
	"$normalmapalphaenvmapmask" 1
	"$envmapcontrast" .20
	"$envmapsaturation"0.9
	"$envmaptint" "[ .36 .36 .36 ]"
                "$halflambert" 1
	"$nodecal" "1"
}
