"Dav0rs Archives"
 {
	"~Pack" ""
	"Xbox360"                	        "models/xbox360/xbox360.mdl"
	"Delorean"                	        "models/delorean/delorean.mdl"
	"Delorean Open"                       	"models/deloreanopen/deloreanopen.mdl"
	"Zeppelin"                	        "models/zeplin/zeplin.mdl"
	"Pirate Ship"                	        "models/pirateship/pirateship.mdl"	
	"GlowStick"                	        "models/glowstick/glowstick.mdl"

 	"Mask"                	                "models/mask/mask.mdl"
        "Paintball gun"                         "models/paintballgun/paintballgun.mdl"
        "Minigun"                               "models/minigun/minigun.mdl"
        	"~Hats" ""
	"Booze Helmet"				"models/booze/booze.mdl"
	"Beanie"				"models/beanie/beanie.mdl"
	"police helmet"				"models/police_helm/police_helm.mdl"
	"cowboy hat"				"models/cowboy/cowboy.mdl"
	"crabboy hat"				"models/crabboy/crabboy.mdl"
	"sombrero"				"models/sombrero/sombrero.mdl"
	"sombrero small"			"models/sombrero_small/sombrero_small.mdl"
	"beret"					"models/beret/beret.mdl"
	"german helmet"				"models/german_helm/german_helm.mdl"
	"pirate hat"				"models/pirate_hat/pirate_hat.mdl"	
	"top hat"				"models/top_hat/top_hat.mdl"

	"~Weapons" ""
	"slugger"				"models/slugger/slugger.mdl"
	"scythe"				"models/scythe/scythe.mdl"
	"panzerschreck"				"models/panzerschreck/panzerschreck.mdl"
	"panzerschreck rocket"			"models/panzerschreck_rocket/panzerschreck_rocket.mdl"
	"mace"					"models/mace/mace.mdl"
	"winchester"				"models/winchester/winchester.mdl"
	"golden gun"				"models/ggun/ggun.mdl"
	"chainsaw"				"models/chainsaw/chainsaw.mdl"
	"coachgun"				"models/coachgun/coachgun.mdl"
	"coachgun open"				"models/coachgun_open/coachgun_open.mdl"
	"batleth"				"models/batleth/batleth.mdl"
	"demoniser"				"models/demoniser/demoniser.mdl"
	"TNT Timed"				"models/tnt/tnt.mdl"
	"TNT Fuse"				"models/tnt2/tnt2.mdl"
	"TNT Plunger"				"models/plunger/plunger.mdl"
	"TNT Plunger pushed"			"models/plunger2/plunger2.mdl"
	"baseball bat"				"models/baseballbat/baseballbat.mdl"
	"trident"				"models/trident/trident.mdl"
	"Hellsing gun"				"models/alucard/alucard.mdl"
	"Zeeky bomb"				"models/zeekybomb/zeekybomb.mdl"
	"Tactical Pistol"			"models/tact_pist/tact_pist.mdl"
	"PKD Blaster"				"models/pkd/pkd.mdl"

	"~Items" ""
	"Zippo"					"models/zippo/zippo.mdl"
	"Shades"				"models/shades/shades.mdl"
	"sim icon"				"models/sim_icon/sim_icon.mdl"	
	"Pimp cane"				"models/cane/cane.mdl"
	"gold bar"				"models/gold_bar/gold_bar.mdl"
	"stapler"				"models/stapler/stapler.mdl"
	"stapler open"				"models/stapler_open/stapler_open.mdl"
	"umbrella"				"models/umbrella/umbrella.mdl"
	"holster"				"models/holst/holst.mdl"
	"UFO"					"models/ufo/ufo.mdl"
	"Big pencil"				"models/bigpencil/bigpencil.mdl"
	"teddy"					"models/teddy/teddy.mdl"
	"horn"					"models/horn/horn.mdl"
	"paper plane"				"models/paperplane/paperplane.mdl"	
	"big paper plane"			"models/paperplanebig/paperplanebig.mdl"
	"Shotglass"                		"models/shotglass/shotglass.mdl"
	"Dildo"                			"models/dildo/dildo.mdl"
	"small turtle"                		"models/turtlesmall/turtlesmall.mdl"
	"tiny turtle"                		"models/turtletiny/turtletiny.mdl"
	"turtle blimp"               	 	"models/turtleblimp/turtleblimp.mdl"
        "DHD"                	                "models/dhd/dhd.mdl"
 	"Stargate"                	        "models/stargate/stargate.mdl"
 	"Stargate2"                	        "models/stargate/stargate2.mdl"
        "PPSh41"                	        "models/ppsh41/ppsh41.mdl"
 	"Tardis"                	        "models/tardis/tardis.mdl"
        "Big Axe"                		"models/bigaxe/bigaxe.mdl"
        "Chest"                      	        "models/chest/chest.mdl"     
 	"Chest Open"                	        "models/chestopen/chestopen.mdl"
 	"Construction sign"                	"models/signs/sign1/sign1.mdl"
	"MingeBag sign"                		"models/signs/sign2/sign2.mdl"
	"Moving parts sign"              	"models/signs/sign3/sign3.mdl"
	"Filming Sign"                		"models/signs/sign4/sign4.mdl"
 	"AGRAM 2000"                	        "models/agram2000/agram2000.mdl"
	"Greatblade"                		"models/greatblade/greatblade.mdl"
	"Dagger"            		    	"models/dagger/dagger.mdl"
	"Hammer"                		"models/hammer/hammer.mdl"
	"Helmet"                		"models/helmet1/helmet1.mdl"
 	"Carl Gustaf"                	        "models/carlgustaf/carlgustaf.mdl"
}
