"[+] Useful Stuff"
 {
	"~Useful Stuff" ""
	"Barrel Explosive"                	"models/props_c17/oildrum001_explosive.mdl"
	"Barrel"			"models/props_c17/oildrum001.mdl"
	"Blastdoor 1"                		"models/props_lab/blastdoor001a.mdl"
	"Blastdoor 2"                		"models/props_lab/blastdoor001b.mdl"
	"Blastdoor 3"                		"models/props_lab/blastdoor001c.mdl"
	"Blue Barrel 1"				"models/props_borealis/bluebarrel001.mdl"
	"Blue Barrel (light)"                		"models/props_borealis/bluebarrel002.mdl"
	"Boat Door"                	"models/props_borealis/borealis_door001a.mdl"
	"Breen Desk"                		"models/props_combine/breendesk.mdl"
	"Cargo Container 1"                	"models/props_wasteland/cargo_container01.mdl"
	"Cargo Container 2"                	"models/props_wasteland/cargo_container01b.mdl"
	"Column"			"models/props_c17/column02a.mdl"
	"Concrete Barrier"                  "models/props_c17/concrete_barrier001a.mdl"
	"Concrete pipe"		"models/props_pipes/concrete_pipe001a.mdl"
	"Dock Plank"                		"models/props_wasteland/dockplank01b.mdl"
	"Dock Pole Long"                	"models/props_docks/dock01_pole01a_256.mdl"
	"Dock Pole"                	"models/props_docks/dock01_pole01a_128.mdl"
	"Door 1"           	        "models/props_c17/door01_left.mdl"
	"Door Glass"                         "models/props_c17/door02_double.mdl"
	"Dumpster Lid"                	"models/props_junk/TrashDumpster02b.mdl"
	"Dumpster"                	"models/props_junk/TrashDumpster02.mdl"
	"File Cabinet 1"           "models/props_wasteland/controlroom_filecabinet001a.mdl"
	"File Cabinet 2"           "models/props_wasteland/controlroom_filecabinet002a.mdl"
	"Gas can"                	"models/props_junk/gascan001a.mdl"
	"Huge chimney"                		"models/props_animated_breakable/Smokestack.mdl"
	"Iron Beam 1"                		"models/props_junk/iBeam01a.mdl"
	"Iron Beam 2"                	"models/props_junk/iBeam01a_cluster01.mdl"
	"Kennel"                		"models/props_lab/kennel.mdl"
	"Laundry basket 1"                	"models/props_wasteland/laundry_basket001.mdl"
	"Laundry basket 2"                	"models/props_wasteland/laundry_basket002.mdl"
	"Letter E"             			   "models/props_rooftop/Sign_Letter02_E002.mdl"
	"Letter F"                	"models/props_rooftop/Sign_Letter_F001b.mdl"
	"Letter H"                	"models/props_rooftop/Sign_Letter_H001.mdl"
	"Letter K"              		  "models/props_rooftop/Sign_Letter02_K002.mdl"
	"Letter M"                	"models/props_rooftop/Sign_Letter_M001.mdl"
	"Letter Rus1"           		  "models/props_rooftop/Sign_Letter02_Rus1002.mdl"
	"Letter T"                	"models/props_rooftop/Sign_Letter_T001.mdl"
	"Letter U"                	"models/props_rooftop/Sign_Letter_U001b.mdl"	
	"Long Desk"                	"models/props_wasteland/controlroom_desk001a.mdl"
	"Metal Panel 1"                	"models/props_debris/metal_panel01a.mdl"
	"Metal Panel 2"                	"models/props_debris/metal_panel02a.mdl"
	"Metalladder 1"			"models/props_c17/metalladder001.mdl"
	"Metalladder 2"			"models/props_c17/metalladder002.mdl"
	"Metalladder 3"			"models/props_c17/metalladder002b.mdl"
	"Metalladder 4"			"models/props_c17/metalladder003.mdl"
	"Orange Tube"                		"models/props_lab/generatortube.mdl"
	"Propane Tank"			"models/props_junk/propane_tank001a.mdl"
	"Ravenholm Sign"                		"models/props_junk/ravenholmsign.mdl"
	"Saw Blade"                		"models/props_junk/sawblade001a.mdl"
	"Signpole"			"models/props_c17/signpole001.mdl"
	"Streetsign: 1"                		"models/props_c17/streetsign001c.mdl"
	"Streetsign: 2"                		"models/props_c17/streetsign002b.mdl"
	"Streetsign: 3"                		"models/props_c17/streetsign003b.mdl"
	"Streetsign: 4"                		"models/props_c17/streetsign004e.mdl"
	"Streetsign: 5"                		"models/props_c17/streetsign004f.mdl"
	"Streetsign: 6"                		"models/props_c17/streetsign005b.mdl"
	"Streetsign: 7"                		"models/props_c17/streetsign005c.mdl"
	"Streetsign: 8"                		"models/props_c17/streetsign005d.mdl"
	"Supply Crate"			"models/items/item_item_crate.mdl"
	"Tpp. Form"                		"models/props_lab/teleplatform.mdl"
	"Trashcan 2"                		"models/props_trainstation/trashcan_indoor001b.mdl"
	"Ts. Column"                		"models/props_trainstation/trainstation_column001.mdl"
	"Propane Tank"			"models/props_junk/propane_tank001a.mdl"
	"Vending 1"                	"models/props_interiors/VendingMachineSoda01a.mdl"
	"Vending Door"            "models/props_interiors/VendingMachineSoda01a_door.mdl"
	"Watermelon"				"models/props_junk/watermelon01.mdl"
 	"Wood Crate 1"                	"models/props_junk/wood_crate001a.mdl"
	"Wood Crate 2"                	"models/props_junk/wood_crate002a.mdl"
	"Wood Fence 1"                		"models/props_wasteland/wood_fence01a.mdl"
	"Wood Fence 2"                		"models/props_wasteland/wood_fence02a.mdl"
	"Wood Pallet"                	"models/props_junk/wood_pallet001a.mdl"
	"Wood Board 1"                		"models/props_debris/wood_board01a.mdl"
	"Wood Board 2"                		"models/props_debris/wood_board02a.mdl"
	"Wood Board 3"                		"models/props_debris/wood_board03a.mdl"
	"Wood Board 4"                		"models/props_debris/wood_board04a.mdl"
	"Wood Board 5"                		"models/props_debris/wood_board05a.mdl"
	"Wood Board 6"                		"models/props_debris/wood_board06a.mdl"
	"Wood Board 7"                		"models/props_debris/wood_board07a.mdl"
	
	"@Misc" ""
	"Barricade 1"                		"models/props_wasteland/barricade001a.mdl"
	"Barricade 2"                		"models/props_wasteland/barricade002a.mdl"
	"BigRock"                		"models/props_lab/BigRock.mdl"
	"Buoy"                		"models/props_wasteland/buoy01.mdl"
	"Clock"                		"models/props_trainstation/clock01.mdl"
	"Cooling Tank"              	"models/props_wasteland/horizontalcoolingtank04.mdl"
	"Gas Pump"                		"models/props_wasteland/gaspump001a.mdl"
	"Gear"                		"models/props_wasteland/gear01.mdl"
	"Handrail"             "models/props_trainstation/handrail_64decoration001a.mdl"
	"Locker Door"                	"models/props_lab/lockerdoorleft.mdl"
	"Payphone"                		"models/props_trainstation/payphone001a.mdl"
	"Plug holder"                	"models/props_lab/tpplugholder_single.mdl"
	"Plug"                		"models/props_lab/tpplug.mdl"
	"Pole"                "models/props_trainstation/pole_448Connection002b.mdl"
	"Teleporter"                		"models/props_lab/teleplatform.mdl"
	"Track Sign 1"                		"models/props_trainstation/TrackSign01.mdl"
	"Track Sign 2"                		"models/props_trainstation/TrackSign02.mdl"
	"Track Sign 3"                		"models/props_trainstation/TrackSign03.mdl"
	"Track Sign 4"                		"models/props_trainstation/TrackSign07.mdl"
	"Track Sign 5"                		"models/props_trainstation/TrackSign08.mdl"
	"Track Sign 6"                		"models/props_trainstation/TrackSign09.mdl"
	"Track Sign 7"                		"models/props_trainstation/TrackSign10.mdl"
	"Train Clock"                	"models/props_trainstation/trainstation_clock001.mdl"
	"Train Post"                	"models/props_trainstation/trainstation_post001.mdl"	
	"Vent"                		"models/props_junk/vent001.mdl"
 }
