"VertexLitGeneric"
{
	"$basetexture" "FFmdls/props_combine/health_charger001"
	"$surfaceprop" "metal"
	"$selfillum" "1"
//	"$envmap" "env_cubemap"
//	"$envmaptint" "[ .2 .2 .2]"
//	"$basealphaenvmapmask" 1
//	"$envmapmask" "FFmdls/props_combine/health_charger001_mask"
}
