// envmaptint_fix
"VertexLitGeneric"
{
	// Original shader: VertexLitTexture
	"$basetexture" "FFmdls/gman/gman_face_map3"
	"$bumpmap" "FFmdls/gman/gman_normal"
	"$envmap" "env_cubemap"
	"$envmaptint" "[ .04 .04 .04 ]"
	"$envmapconstrast" "1"
	"$normalmapalphaenvmapmask" 1
	"$halflambert" 1
}
