"VertexLitGeneric"
{
	"$basetexture" "phoenix_storms/cannon"
	"$surfaceprop" "metal"
	"$bumpmap" "phoenix_storms/cannon_bump"
	"$envmap" "env_cubemap"
	"$envmaptint" "[ .2 .2 .2 ]"
	"$selfillum" 0
	"$model" 1
}


