"VertexLitGeneric"
{
	"$basetexture" "phoenix_storms/car_tire"
	"$surfaceprop" "metal"
	"$bumpmap" "phoenix_storms/tire_bump"
	"$envmap" "env_cubemap"
	"$normalmapalphaenvmapmask" 1
	//"$basealphaenvmapmask" 1
	"$envmapcontrast" 1
	"$envmapsaturation" 0.5
	"$envmaptint" "[ .7 .7 .7 ]"
	"$model" 1
}


