"VertexLitGeneric"
{
	"$basetexture" "phoenix_storms/chrome"
	"$surfaceprop" "metal"
	//"$bumpmap" "phoenix_storms/tire_bump"
	"$envmap" "env_cubemap"
	"$envmaptint" "[ .7 .7 .7 ]"
	"$envmapcontrast" 0.2
	"$envmapsaturation" 0	//"$envmapmask" "Models/props_combine/combine_binocular01_mask"
	"$selfillum" 0
	"$model" 1
}


