"VertexLitGeneric"
{
	"$basetexture" "phoenix_storms/dome"
	"$surfaceprop" "metal"
	"$bumpmap" "phoenix_storms/dome_bump"
	"$envmap" "env_cubemap"
	"$normalmapalphaenvmapmask" 1
	"$envmapcontrast" 1
	"$envmapsaturation" 0.2
	"$envmaptint" "[ 1.0 1.0 1.0 ]"
	"$model" 1
}


