"VertexLitGeneric"
{
	"$basetexture" "phoenix_storms/gear_top"
	"$surfaceprop" "metal"
	"$envmap" "env_cubemap"
	"$envmapcontrast" 1
	"$envmapsaturation" 0
	"$envmaptint" "[ .85 .85 .9 ]"
	//"$envmapmask" "phoenix_storms/gear_top"
	"$selfillum" 0
	"$model" 1
	"$basealphaenvmapmask" 1
}


