"VertexLitGeneric"
{
	"$basetexture" "phoenix_storms/heli"
	"$surfaceprop" "metal"
	//"$bumpmap" "phoenix_storms/top_bump"
	"$envmap" "env_cubemap"
	"$envmaptint" "[ .25 .25 .25 ]"
	//"$envmapmask" "Models/props_combine/combine_binocular01_mask"
	"$selfillum" 0
	"$model" 1
}


