"VertexLitGeneric"
{
	"$basetexture" "phoenix_storms/indentTiles_1-2"
	"$surfaceprop" "metal"
	"$bumpmap" "phoenix_storms/indentTiles_bump"
	"$envmap" "env_cubemap"
	"$envmaptint" "[ .35 .35 .35 ]"
	"$envmapcontrast" 0.1
	"$envmapsaturation" 0.2
	//"$envmapmask" "Models/props_combine/combine_binocular01_mask"
	"$selfillum" 0
	"$model" 1
}


