"VertexLitGeneric"
{
	"$basetexture" "phoenix_storms/iron_rails"
	"$surfaceprop" "metal"
	"$envmap" "env_cubemap"
	"$envmapcontrast" 1
	"$envmapsaturation" 0
	"$envmaptint" "[ 1.0 1.0 1.0 ]"
	"$basealphaenvmapmask" 1
	"$model" 1
}


