"VertexLitGeneric"
{
	// Original shader: BaseTimesLightmapAlphaBlend
	"$translucent" 1
	"$basetexture" "phoenix_storms/metalfence004a"
	"%compilepassbullets" 1
	"$surfaceprop" "chainlink"
	//"%keywords" "c17downtown,c17industrial"
	"%compileladder" 1
}
