"VertexLitGeneric"
{
	"$basetexture" "phoenix_storms/thruster"
	"$surfaceprop" "metal"
	//"$bumpmap" "phoenix_storms/thruster_bump"
	"$envmap" "env_cubemap"
	"$envmaptint" "[ .2 .2 .2 ]"
	//"$envmapmask" "Models/props_combine/combine_binocular01_mask"
	"$selfillum" 0
	"$model" 1
}


