"VertexLitGeneric"
{
	"$basetexture" "phoenix_storms/white_fps"
	//"%compilepassbullets" 1
	//"$translucent" 1
	//"$nocull" 1	
	"$surfaceprop" "rubber"
	"$envmap" "env_cubemap"
	"$envmapcontrast" 1
	"$envmapsaturation" 0.1
	"$envmaptint" "[ .8 .8 .8 ]"
	//"$basealphaenvmapmask" 1
	"$model" 1
	//"$gamematerial"	"Y"
}


