"VertexLitGeneric"
{
	"$basetexture" "phoenix_storms/wood_wire"
	"$surfaceprop" "metal"
	"$bumpmap" "phoenix_storms/wood_wire_bump"
	"$envmap" "env_cubemap"
	"$normalmapalphaenvmapmask" 1
	//"$basealphaenvmapmask" 1
	"$envmapcontrast" 1
	"$envmapsaturation" 1
	"$envmaptint" "[ .8 .8 .8 ]"
	"$model" 1
}


