"VertexLitGeneric"
{
	"$basetexture" "phoenix_storms/wood_dome_side"
	"$surfaceprop" "wood"
	"$bumpmap" "phoenix_storms/wood_dome_side_bump"
	"$envmap" "env_cubemap"
	"$normalmapalphaenvmapmask" "1"
	"$envmaptint" "[ .6 .6 .6 ]"
	"$envmapcontrast" 1
	"$envmapsaturation" 1
	"$model" 1
}


