// ******************************
// CRANE


"Crane_engine_idle"
{
	"channel"		"CHAN_STATIC"
	"volume"		"1.0"
	"pitch"		"PITCH_NORM"

	"soundlevel"	"SNDLVL_90dB"

	"wave"		"vehicles/Crane/crane_idle_loop3.wav"
}

"Crane_engine_start"
{
	"channel"		"CHAN_STATIC"
	"volume"		"1.0"
	"pitch"		"PITCH_NORM"

	"soundlevel"	"SNDLVL_90dB"

	"wave"		"vehicles/Crane/crane_startengine1.wav"
}

"Crane_engine_stop"
{
	"channel"		"CHAN_STATIC"
	"volume"		"1.0"
	"pitch"		"PITCH_NORM"

	"soundlevel"	"SNDLVL_90dB"

	"wave"		"common/null.wav"
}

"Crane_firstgear"
{
	"channel"		"CHAN_STATIC"
	"volume"		"1.0"
	"pitch"		"90,120"

	"soundlevel"	"SNDLVL_90dB"

	"wave"		"vehicles/Crane/crane_turn_loop2.wav"
}

"Crane_throttleoff_slowspeed"
{
	"channel"		"CHAN_STATIC"
	"volume"		"1.0"
	"pitch"		"PITCH_NORM"

	"soundlevel"	"SNDLVL_90dB"

	"wave"		"vehicles/Crane/crane_slow_to_idle_loop4.wav"
}

"Crane_extend_start"
{
	"channel"		"CHAN_STATIC"
	"volume"		"1.0"
	"pitch"		"PITCH_NORM"

	"soundlevel"	"SNDLVL_90dB"

	"wave"			"vehicles/Crane/crane_extend_loop1.wav"
}

"Crane_extend_stop"
{
	"channel"		"CHAN_STATIC"
	"volume"		"1.0"
	"pitch"		"PITCH_NORM"

	"soundlevel"	"SNDLVL_90dB"

	"wave"			"vehicles/Crane/crane_extend_stop.wav"
}

"Crane_magnet_release"
{
	"channel"		"CHAN_STATIC"
	"volume"		"1.0"
	"pitch"		"PITCH_NORM"

	"soundlevel"	"SNDLVL_90dB"

	"wave"			"vehicles/Crane/crane_magnet_release.wav"
}

"Crane_magnet_reelin"
{
	"channel"		"CHAN_STATIC"
	"volume"		"1.0"
	"pitch"		"PITCH_NORM"

	"soundlevel"	"SNDLVL_90dB"

	"wave"		"vehicles/Crane/crane_magnet_grab.wav"
}


"Crane_magnet_toggle"
{
	"channel"		"CHAN_STATIC"
	"volume"		"1.0"
	"pitch"		"PITCH_NORM"

	"soundlevel"	"SNDLVL_NORM"

	"wave"		"vehicles/Crane/crane_magnet_switchon.wav"
}

"Crane_magnet_creak"
{
	"channel"		"CHAN_STATIC"
	"volume"		"1.0"
	"pitch"		"90, 110"

	"soundlevel"	"SNDLVL_90dB"

	"rndwave"
	{
		"wave"	"vehicles/Crane/crane_creak1.wav"
		"wave"	"vehicles/Crane/crane_creak2.wav"
		"wave"	"vehicles/Crane/crane_creak3.wav"
		"wave"	"vehicles/Crane/crane_creak4.wav"
	}
}



// ******************************
// JEEP


"ATV_engine_idle"
{
	"channel"		"CHAN_STATIC"
	"volume"		"1.0"
	"soundlevel"	"SNDLVL_80dB"

	//"wave"		"vehicles/atv_idle_loop1.wav"
	"wave"		"vehicles/v8/v8_idle_loop1.wav"
}

"ATV_engine_null"
{
	"channel"		"CHAN_STATIC"
	"volume"		"1.0"
	"soundlevel"	"SNDLVL_80dB"

	"wave"		"common/null.wav"
}

"ATV_engine_start"
{
	"channel"		"CHAN_STATIC"
	"volume"		"1.0"
	"soundlevel"	"SNDLVL_80dB"
	//"wave"		"vehicles/atv_start_loop1.wav"
	"wave"		"vehicles/v8/v8_start_loop1.wav"
}

"ATV_engine_stop"
{
	"channel"		"CHAN_STATIC"
	"volume"		"1.0"
	"soundlevel"	"SNDLVL_80dB"

	//"wave"		"common/null.wav"
	"wave"		"vehicles/v8/v8_stop1.wav"
}

"ATV_rev"
{
	"channel"		"CHAN_STATIC"
	"volume"		"0.9"
	"soundlevel"	"SNDLVL_80dB"
	"pitch"		"98,105"
	"wave"		"vehicles/v8/v8_rev_short_loop1.wav"

//	"rndwave"
//	{
//		"wave"		"vehicles/v8/v8_rev_short_loop1.wav"
//		"wave"		"vehicles/v8/v8_rev_short_loop6.wav"
//	}
}

"ATV_reverse"
{
	"channel"		"CHAN_STATIC"
	"volume"		"1.0"
	"soundlevel"	"SNDLVL_80dB"
	"pitch"			"100"
	"wave"			"vehicles/v8/v8_firstgear_rev_loop1.wav"
}


"ATV_firstgear"
{
	"channel"		"CHAN_STATIC"
	"volume"		"1.0"
	"soundlevel"	"SNDLVL_80dB"
	"pitch"		"100"
	//"wave"		"vehicles/v8/v8_firstgear_rev_loop1.wav"
	"wave"		"vehicles/v8/first.wav"
}

"ATV_secondgear"
{
	"channel"		"CHAN_STATIC"
	"volume"		"1.0"
	"soundlevel"	"SNDLVL_80dB"
	"pitch"		"90,105"
	//"wave"		"vehicles/atv_secondgear_to_fullthrottle_loop1.wav"
	//"wave"		"vehicles/v8/v8_secondgear_loop1.wav"
	"wave"		"vehicles/v8/second.wav"
}

"ATV_thirdgear"
{
	"channel"		"CHAN_STATIC"
	"volume"		"1.0"
	"soundlevel"	"SNDLVL_80dB"
	"pitch"		"90,105"
	//"wave"		"vehicles/atv_thirdgear_to_fullthrottle_loop1.wav"
	//"wave"		"vehicles/v8/v8_secondgear_loop1.wav"
	"wave"		"vehicles/v8/third.wav"
}

"ATV_fourthgear"
{
	"channel"		"CHAN_STATIC"
	"volume"		"1.0"
	"soundlevel"	"SNDLVL_80dB"
	"pitch"		"105,105"
	"wave"		"vehicles/v8/fourth_cruise_loop2.wav"
}

"ATV_firstgear_noshift"
{
	"channel"		"CHAN_STATIC"
	"volume"		"1.0"
	"soundlevel"	"SNDLVL_80dB"
	"pitch"		"105,105"
	// NOTE: This needs to be a looping sound
	"wave"		"vehicles/v8/first.wav"
}
"ATV_secondgear_noshift"
{
	"channel"		"CHAN_STATIC"
	"volume"		"1.0"
	"soundlevel"	"SNDLVL_80dB"
	"pitch"		"105,105"
	// NOTE: This needs to be a looping sound
	"wave"		"vehicles/v8/first.wav"
}
"ATV_thirdgear_noshift"
{
	"channel"		"CHAN_STATIC"
	"volume"		"1.0"
	"soundlevel"	"SNDLVL_80dB"
	"pitch"		"105,105"
	// NOTE: This needs to be a looping sound
	"wave"		"vehicles/v8/first.wav"
}

"ATV_fourthgear_noshift"
{
	"channel"		"CHAN_STATIC"
	"volume"		"1.0"
	"soundlevel"	"SNDLVL_80dB"
	"pitch"		"105,105"
	// NOTE: This needs to be a looping sound
	"wave"		"vehicles/v8/fourth_cruise_loop2.wav"
}

"ATV_downshift_to_2nd"
{
	"channel"		"CHAN_STATIC"
	"volume"		"1.0"
	"soundlevel"	"SNDLVL_80dB"
	"pitch"		"90,105"
	//"wave"		"vehicles/atv_downshift_to_2nd_loop1.wav"
	"wave"		"vehicles/v8/first_rev.wav"
	//"wave"		"vehicles/v8/downshift.wav"
	//"wave"		"common/null.wav"
}

"ATV_downshift_to_1st"
{
	"channel"		"CHAN_STATIC"
	"volume"		"1.0"
	"soundlevel"	"SNDLVL_80dB"
	"pitch"		"90,105"
	//"wave"		"vehicles/atv_downshift_to_1st_loop1.wav"
	"wave"		"vehicles/v8/first_rev.wav"
	//"wave"		"vehicles/v8/downshift.wav"
	//"wave"		"common/null.wav"
}

"ATV_throttleoff_slowspeed"
{
	"channel"		"CHAN_STATIC"
	"volume"		"1.0"
	"soundlevel"	"SNDLVL_80dB"
	"pitch"		"90,105"
	"wave"		"vehicles/v8/v8_throttle_off_slow_loop2.wav"
	//"wave"		"vehicles/v8/v8_idle_loop1.wav"
}

"ATV_throttleoff_fastspeed"
{
	"channel"		"CHAN_STATIC"
	"volume"		"1.0"
	"soundlevel"	"SNDLVL_80dB"
	"pitch"		"90,105"
	//"wave"		"vehicles/atv_throttleoff_loop1.wav"
	"wave"		"vehicles/v8/v8_throttle_off_fast_loop1.wav"
	//"wave"		"common/null.wav"
}

"ATV_skid_lowfriction"
{
	"channel"		"CHAN_BODY"
	"volume"		"1.0"
	"soundlevel"	"SNDLVL_80dB"
	"pitch"		"90,110"
	//"wave"		"vehicles/atv_skid_lowfriction.wav"
	"wave"		"vehicles/v8/skid_lowfriction.wav"
}

"ATV_skid_normalfriction"
{
	"channel"		"CHAN_BODY"
	"volume"		"1.0"
	"soundlevel"	"SNDLVL_80dB"
	"pitch"		"90,110"
	//"wave"		"vehicles/atv_skid_normalfriction.wav"
	"wave"		"vehicles/v8/skid_normalfriction.wav"
}

"ATV_skid_highfriction"
{
	"channel"		"CHAN_BODY"
	"volume"		"1.0"
	"soundlevel"	"SNDLVL_80dB"
	"pitch"		"90,110"
	//"wave"		"vehicles/atv_skid_highfriction.wav"
	"wave"		"vehicles/v8/skid_highfriction.wav"
}

"ATV_impact_heavy"
{
	"channel"		"CHAN_STATIC"
	"volume"		"1.0"
	"soundlevel"	"SNDLVL_80dB"
	"pitch"		"95,110"
	"rndwave"
	{
		"wave"	"vehicles/v8/vehicle_impact_heavy1.wav"
		"wave"	"vehicles/v8/vehicle_impact_heavy2.wav"
		"wave"	"vehicles/v8/vehicle_impact_heavy3.wav"
		"wave"	"vehicles/v8/vehicle_impact_heavy4.wav"
	}
}

"ATV_impact_medium"
{
	"channel"		"CHAN_STATIC"
	"volume"		"1.0"
	"soundlevel"	"SNDLVL_80dB"
	"pitch"		"95,110"
	"rndwave"
	{
		"wave"	"vehicles/v8/vehicle_impact_medium1.wav"
		"wave"	"vehicles/v8/vehicle_impact_medium2.wav"
		"wave"	"vehicles/v8/vehicle_impact_medium3.wav"
		"wave"	"vehicles/v8/vehicle_impact_medium4.wav"
	}
}

"ATV_rollover"
{
	"channel"		"CHAN_STATIC"
	"volume"		"1.0"
	"soundlevel"	"SNDLVL_80dB"
	"pitch"		"95,110"
	"rndwave"
	{
		"wave"	"vehicles/v8/vehicle_rollover1.wav"
		"wave"	"vehicles/v8/vehicle_rollover2.wav"
	}
}


"ATV_turbo_on"
{
	"channel"		"CHAN_ITEM"
	"volume"		"1.0"
	"soundlevel"	"SNDLVL_80dB"
	"pitch"		"90,110"
	//"wave"		"vehicles/vehicle_turbo_loop3.wav"
	"wave"		"vehicles/v8/v8_turbo_on_loop1.wav"
}

"ATV_turbo_off"
{
	"channel"		"CHAN_ITEM"
	"volume"		"1.0"
	"soundlevel"	"SNDLVL_80dB"
	"pitch"		"90,110"
	//"wave"		"vehicles/vehicle_turbo_off1.wav"
	"wave"		"vehicles/v8/v8_turbo_off.wav"
}

"ATV_start_in_water"
{
	"channel"		"CHAN_VOICE"
	"volume"		"1.0"
	"soundlevel"	"SNDLVL_80dB"
	"pitch"			"100"
	"wave"			"vehicles/jetski/jetski_no_gas_start.wav"
}

"ATV_stall_in_water"
{
	"channel"		"CHAN_VOICE"
	"volume"		"1.0"
	"soundlevel"	"SNDLVL_80dB"
	"pitch"			"100"
	"wave"			"vehicles/jetski/jetski_off.wav"
}

"Jeep.GaussCharge"
{
	"channel"		"CHAN_STATIC"
	"volume"		"VOL_NORM"
	"soundlevel"	"SNDLVL_NORM"
	"wave"		"weapons/gauss/chargeloop.wav"
}

"PropJeep.FireCannon"
{
	"channel"		"CHAN_AUTO"
	"volume"		"0.750, 1.000"
	"pitch"			"95, 105"

	"soundlevel"	"SNDLVL_NORM"

	"wave"			"weapons/gauss/fire1.wav"
}

"PropJeep.FireChargedCannon"
{
	"channel"		"CHAN_AUTO"
	"volume"		"0.750, 1.000"
	"pitch"			"95, 105"

	"soundlevel"	"SNDLVL_NORM"

	"wave"			"weapons/gauss/fire1.wav"
}

"PropJeep.AmmoOpen"
{
	"channel"		"CHAN_ITEM"
	"volume"		"1.0"
	"soundlevel"	"SNDLVL_80dB"
	"pitch"		"90,110"
	"wave"		"vehicles/atv_ammo_open.wav"
}

"PropJeep.AmmoClose"
{
	"channel"		"CHAN_ITEM"
	"volume"		"1.0"
	"soundlevel"	"SNDLVL_80dB"
	"pitch"		"90,110"
	"wave"		"vehicles/atv_ammo_close.wav"
}

// **********************************
// APC


"PropAPC.FireCannon"
{
	"channel"		"CHAN_WEAPON"
	"volume"		"VOL_NORM"
	"pitch"			"PITCH_NORM"

	"soundlevel"	"SNDLVL_130dB"

	"wave"			"weapons/stinger_fire1.wav"
}

"PropAPC.FireRocket"
{
	"channel"		"CHAN_WEAPON"
	"volume"		"VOL_NORM"
	"pitch"			"PITCH_NORM"

	"soundlevel"	"SNDLVL_130dB"

	"wave"			"weapons/stinger_fire1.wav"
}

// ******************************
// AIRBOAT

// NOTE: play engine idle 3.15 seconds after engine start
// NOTE: if you change the volume of the start sound here, you need to change ENGINE_MAX_VOLUME in vehicle_airboat.cpp!
"Airboat_engine_start"
{
	"channel"		"CHAN_STATIC"
	"volume"		"0.8"
	"soundlevel"	"SNDLVL_NORM"
	"pitch"			"95,105"

	"wave"			"vehicles/airboat/fan_motor_start1.wav"
}

// kill all engine loops and play this

"Airboat_engine_stop"
{
	"channel"		"CHAN_STATIC"
	"volume"		"0.8"
	"pitch"			"95, 105"

	"soundlevel"	"SNDLVL_NORM"

	"wave"			"vehicles/airboat/fan_motor_shut_off1.wav"
}

// pitch shift between max & min pitch, based on speed

"Airboat_engine_idle"
{
	"channel"		"CHAN_STATIC"
	"volume"		"1.0"
	"pitch"			"100,160"

	"soundlevel"	"SNDLVL_NORM"

	"wave"			"vehicles/airboat/fan_motor_idle_loop1.wav"
}

"Airboat_engine_fullthrottle"
{
	"channel"		"CHAN_STATIC"
	"volume"		"1.0"
	"pitch"			"80,130"

	"soundlevel"	"SNDLVL_NORM"

	"wave"		"vehicles/airboat/fan_motor_fullthrottle_loop1.wav"
}

// pitch shift between max & min based on throttle

"Airboat_fan_idle"
{
	"channel"		"CHAN_STATIC"
	"volume"		"0.9"
	"pitch"			"100,120"

	"soundlevel"	"SNDLVL_NORM"

	"wave"			"vehicles/airboat/fan_blade_idle_loop1.wav"
}

"Airboat_fan_fullthrottle"
{
	"channel"		"CHAN_STATIC"
	"volume"		"1.0"
	"pitch"		"100,120"

	"soundlevel"	"SNDLVL_NORM"

	"wave"		"vehicles/airboat/fan_blade_fullthrottle_loop1.wav"
}

// one-shot, pontoon skid on rough surface

"Airboat_skid_rough"
{
	"channel"		"CHAN_BODY"
	"volume"		"1.0"
	"pitch"			"80, 120"

	"soundlevel"	"SNDLVL_90dB"

	"rndwave"
	{
		"wave"	"vehicles/airboat/pontoon_scrape_rough1.wav"
		"wave"	"vehicles/airboat/pontoon_scrape_rough2.wav"
		"wave"	"vehicles/airboat/pontoon_scrape_rough3.wav"
	}
}

// one-shot, pontoon skid on smooth surface

"Airboat_skid_smooth"
{
	"channel"		"CHAN_BODY"
	"volume"		"1.0"
	"pitch"			"80, 120"

	"soundlevel"	"SNDLVL_90dB"

	"rndwave"
	{
		"wave"	"vehicles/airboat/pontoon_scrape_smooth1.wav"
		"wave"	"vehicles/airboat/pontoon_scrape_smooth2.wav"
		"wave"	"vehicles/airboat/pontoon_scrape_smooth3.wav"
	}
}

// hard landing

"Airboat_impact_hard"
{
	"channel"		"CHAN_ITEM"
	"volume"		"1.0"
	"pitch"			"95, 105"

	"soundlevel"	"SNDLVL_90dB"

	"rndwave"
	{
		"wave"	"vehicles/airboat/pontoon_impact_hard1.wav"
		"wave"	"vehicles/airboat/pontoon_impact_hard2.wav"
	}
}

// soft landing

"Airboat_impact_soft"
{
	"channel"		"CHAN_ITEM"
	"volume"		"1.0"
	"pitch"			"95, 105"

	"soundlevel"	"SNDLVL_90dB"

	"wave"	"vehicles/airboat/pontoon_impact_soft1.wav"
}

// hard landing in water. Also play Airboat_impact_hard.

"Airboat_impact_splash"
{
	"channel"		"CHAN_STATIC"
	"volume"		"0.6"
	"pitch"			"95, 105"

	"soundlevel"	"SNDLVL_90dB"

	"rndwave"
	{
		"wave"	"vehicles/airboat/pontoon_splash1.wav"
		"wave"	"vehicles/airboat/pontoon_splash2.wav"
	}
}

// water lapping on pontoons (loop)
// fade out in 2 seconds when moving, fade in in 2 seconds when stopped

"Airboat_water_stopped"
{
	"channel"		"CHAN_STATIC"
	"volume"		"0.5"
	"pitch"			"100"

	"soundlevel"	"SNDLVL_90dB"

	"wave"	"vehicles/airboat/pontoon_stopped_water_loop1.wav"
}

// under way - water splashing on pontoons (loop)
// fade in from 0 volume, based on speed

"Airboat_water_fast"
{
	"channel"		"CHAN_STATIC"
	"volume"		"0.6"
	"pitch"			"100"

	"soundlevel"	"SNDLVL_90dB"

	"wave"	"vehicles/airboat/pontoon_fast_water_loop2.wav"
}

"Airboat_gun_charge"
{
	"channel"		"CHAN_STATIC"
	"volume"		"0.6"
	"pitch"			"100"

	"soundlevel"	"SNDLVL_90dB"

	"wave"	"weapons/airboat/chargeloop.wav"
}

"Airboat_gun_shoot"
{
	"channel"		"CHAN_WEAPON"
	"volume"		"1.0"
	"pitch"			"98,101"
							 
	"soundlevel"	"SNDLVL_GUNFIRE"

	"wave"	"weapons/airboat/shoot.wav"
}

"Airboat.FireGunLoop"
{
	"channel"		"CHAN_STATIC"
	"volume"		"VOL_NORM"
	"pitch"			"PITCH_NORM"

	"soundlevel"	"SNDLVL_GUNFIRE"

	"wave"			"weapons/airboat/airboat_gun_loop2.wav"
}

"Airboat.FireGunRevDown"
{
	"channel"		"CHAN_STATIC"
	"volume"		"VOL_NORM"
	"pitch"			"PITCH_NORM"

	"soundlevel"	"SNDLVL_GUNFIRE"

	"rndwave"
	{
		"wave"			"weapons/airboat/airboat_gun_lastshot1.wav"
		"wave"			"weapons/airboat/airboat_gun_lastshot2.wav"
	}
}

"Airboat.FireGunHeavy"
{
	"channel"		"CHAN_STATIC"
	"volume"		"VOL_NORM"
	"pitch"			"PITCH_NORM"

	"soundlevel"	"SNDLVL_GUNFIRE"

	"rndwave"
	{
		"wave"			"weapons/airboat/airboat_gun_energy1.wav"
		"wave"			"weapons/airboat/airboat_gun_energy2.wav"
	}
}

"Airboat_NoSound"
{
	"channel"		"CHAN_STATIC"
	"volume"		"1.0"
	"pitch"			"100"

	"soundlevel"	"SNDLVL_NORM"

	"wave"			"common/null.wav"
}

"Airboat_headlight_on"
{
	"channel"	"CHAN_ITEM"
	"volume"	"1.0"
	"soundlevel"    "SNDLVL_75dB"
	"pitch"	"PITCH_NORM"

	"wave" "items/flashlight1.wav"
}

"Airboat_headlight_off"
{
	"channel"	"CHAN_ITEM"
	"volume"	"1.0"
	"soundlevel"  "SNDLVL_75dB"
	"pitch"	"PITCH_NORM"

	"wave" "items/flashlight1.wav"
}

// **********************************
// Prisoner pod

"PrisonerPod.NoSound"
{
	"channel"		"CHAN_STATIC"
	"volume"		"1.0"
	"pitch"			"100"

	"soundlevel"	"SNDLVL_NORM"

	"wave"			"common/null.wav"
}

// ******************************
// Combine APC

"apc_engine_idle"
{
	"channel"		"CHAN_STATIC"
	"volume"		"0.7"
	"soundlevel"	"SNDLVL_75db"

	"wave"		"vehicles/apc/apc_idle1.wav"
}

"apc_engine_start"
{
	"channel"		"CHAN_STATIC"
	"volume"		"0.85"
	"soundlevel"	"SNDLVL_95db"

	"wave"		"vehicles/apc/apc_start_loop3.wav"
}

"apc_engine_stop"
{
	"channel"		"CHAN_STATIC"
	"volume"		"0.85"
	"soundlevel"	"SNDLVL_95db"

	"wave"		"vehicles/apc/apc_shutdown.wav"
}

"apc_firstgear"
{
	"channel"		"CHAN_STATIC"
	"volume"		"0.85"
	"soundlevel"	"SNDLVL_95db"
	"pitch"		"100"
	"wave"		"vehicles/apc/apc_firstgear_loop1.wav"
}

"apc_firstgear_resume"
{
	"channel"		"CHAN_STATIC"
	"volume"		"0.85"
	"soundlevel"	"SNDLVL_95db"
	"pitch"		"100"
	"wave"		"vehicles/apc/apc_cruise_loop3.wav"
}

"apc_throttleoff_slowspeed"
{
	"channel"		"CHAN_STATIC"
	"volume"		"0.85"
	"soundlevel"	"SNDLVL_95db"
	"pitch"		"100"
	"wave"		"vehicles/apc/apc_idle1.wav"
}

"apc_throttleoff_fastspeed"
{
	"channel"		"CHAN_STATIC"
	"volume"		"0.68"
	"soundlevel"	"SNDLVL_95db"
	"pitch"		"100"
	"wave"		"vehicles/apc/apc_slowdown_fast_loop5.wav"
}
// ******************************
// DEFENDER 90


"D90_engine_idle"
{
	"channel"		"CHAN_STATIC"
	"volume"		"1.0"
	"soundlevel"	"SNDLVL_80dB"

	//"wave"		"vehicles/atv_idle_loop1.wav"
	"wave"		"vehicles/d90/idle.mp3"
}

"D90_engine_null"
{
	"channel"		"CHAN_STATIC"
	"volume"		"1.0"
	"soundlevel"	"SNDLVL_80dB"

	"wave"		"common/null.wav"
}

"D90_engine_start"
{
	"channel"		"CHAN_STATIC"
	"volume"		"1.0"
	"soundlevel"	"SNDLVL_80dB"
	//"wave"		"vehicles/atv_start_loop1.wav"
	"wave"		"vehicles/d90/start.mp3"
}

"D90_engine_stop"
{
	"channel"		"CHAN_STATIC"
	"volume"		"1.0"
	"soundlevel"	"SNDLVL_80dB"

	//"wave"		"common/null.wav"
	"wave"		"vehicles/d90/shutdown.mp3"
}

"D90_rev"
{
	"channel"		"CHAN_STATIC"
	"volume"		"0.9"
	"soundlevel"	"SNDLVL_80dB"
	"pitch"		"98,105"
	"wave"		"vehicles/d90/revving.mp3"

//	"rndwave"
//	{
//		"wave"		"vehicles/d90/revving.mp3"
//		"wave"		"vehicles/d90/revving.mp3"
//	}
}

"D90_reverse"
{
	"channel"		"CHAN_STATIC"
	"volume"		"1.0"
	"soundlevel"	"SNDLVL_80dB"
	"pitch"			"100"
	"wave"			"vehicles/d90/reverse.mp3"
}


"D90_firstgear"
{
	"channel"		"CHAN_STATIC"
	"volume"		"1.0"
	"soundlevel"	"SNDLVL_80dB"
	"pitch"		"100"
	//"wave"		"vehicles/v8/v8_firstgear_rev_loop1.wav"
	"wave"		"vehicles/d90/1stgear.mp3"
}

"D90_secondgear"
{
	"channel"		"CHAN_STATIC"
	"volume"		"1.0"
	"soundlevel"	"SNDLVL_80dB"
	"pitch"		"90,105"
	//"wave"		"vehicles/atv_secondgear_to_fullthrottle_loop1.wav"
	//"wave"		"vehicles/v8/v8_secondgear_loop1.wav"
	"wave"		"vehicles/d90/2ndgear.mp3"
}

"D90_thirdgear"
{
	"channel"		"CHAN_STATIC"
	"volume"		"1.0"
	"soundlevel"	"SNDLVL_80dB"
	"pitch"		"90,105"
	//"wave"		"vehicles/atv_thirdgear_to_fullthrottle_loop1.wav"
	//"wave"		"vehicles/v8/v8_secondgear_loop1.wav"
	"wave"		"vehicles/d90/3rdgear.mp3"
}

"D90_fourthgear"
{
	"channel"		"CHAN_STATIC"
	"volume"		"1.0"
	"soundlevel"	"SNDLVL_80dB"
	"pitch"		"105,105"
	"wave"		"vehicles/d90/4thcruise.mp3"
}

"D90_firstgear_noshift"
{
	"channel"		"CHAN_STATIC"
	"volume"		"1.0"
	"soundlevel"	"SNDLVL_80dB"
	"pitch"		"105,105"
	// NOTE: This needs to be a looping sound
	"wave"		"vehicles/d90/1stgear.mp3"
}
"D90_secondgear_noshift"
{
	"channel"		"CHAN_STATIC"
	"volume"		"1.0"
	"soundlevel"	"SNDLVL_80dB"
	"pitch"		"105,105"
	// NOTE: This needs to be a looping sound
	"wave"		"vehicles/d90/1stgear.mp3"
}
"D90_thirdgear_noshift"
{
	"channel"		"CHAN_STATIC"
	"volume"		"1.0"
	"soundlevel"	"SNDLVL_80dB"
	"pitch"		"105,105"
	// NOTE: This needs to be a looping sound
	"wave"		"vehicles/d90/1stgear.mp3"
}

"D90_fourthgear_noshift"
{
	"channel"		"CHAN_STATIC"
	"volume"		"1.0"
	"soundlevel"	"SNDLVL_80dB"
	"pitch"		"105,105"
	// NOTE: This needs to be a looping sound
	"wave"		"vehicles/d90/4thcruise.mp3"
}

"D90_downshift_to_2nd"
{
	"channel"		"CHAN_STATIC"
	"volume"		"1.0"
	"soundlevel"	"SNDLVL_80dB"
	"pitch"		"90,105"
	//"wave"		"vehicles/atv_downshift_to_2nd_loop1.wav"
	"wave"		"vehicles/v8/first_rev.wav"
	//"wave"		"vehicles/d90/idle.wav"
	//"wave"		"common/null.wav"
}

"D90_downshift_to_1st"
{
	"channel"		"CHAN_STATIC"
	"volume"		"1.0"
	"soundlevel"	"SNDLVL_80dB"
	"pitch"		"90,105"
	//"wave"		"vehicles/atv_downshift_to_1st_loop1.wav"
	"wave"		"vehicles/d90/throttleofffast.mp3"
	//"wave"		"vehicles/d90/idle.wav"
	//"wave"		"common/null.wav"
}

"D90_throttleoff_slowspeed"
{
	"channel"		"CHAN_STATIC"
	"volume"		"1.0"
	"soundlevel"	"SNDLVL_80dB"
	"pitch"		"90,105"
	"wave"		"vehicles/d90/throttleofffast.mp3"
	//"wave"		"vehicles/d90/idle.wav"
}

"D90_throttleoff_fastspeed"
{
	"channel"		"CHAN_STATIC"
	"volume"		"1.0"
	"soundlevel"	"SNDLVL_80dB"
	"pitch"		"90,105"
	//"wave"		"vehicles/atv_throttleoff_loop1.wav"
	"wave"		"vehicles/d90/throttleofffast.mp3"
	//"wave"		"common/null.wav"
}

"D90_skid_lowfriction"
{
	"channel"		"CHAN_BODY"
	"volume"		"1.0"
	"soundlevel"	"SNDLVL_80dB"
	"pitch"		"90,110"
	//"wave"		"vehicles/atv_skid_lowfriction.wav"
	"wave"		"vehicles/v8/skid_lowfriction.wav"
}

"D90_skid_normalfriction"
{
	"channel"		"CHAN_BODY"
	"volume"		"1.0"
	"soundlevel"	"SNDLVL_80dB"
	"pitch"		"90,110"
	//"wave"		"vehicles/atv_skid_normalfriction.wav"
	"wave"		"vehicles/v8/skid_normalfriction.wav"
}

"D90_skid_highfriction"
{
	"channel"		"CHAN_BODY"
	"volume"		"1.0"
	"soundlevel"	"SNDLVL_80dB"
	"pitch"		"90,110"
	//"wave"		"vehicles/atv_skid_highfriction.wav"
	"wave"		"vehicles/v8/skid_highfriction.wav"
}

"D90_impact_heavy"
{
	"channel"		"CHAN_STATIC"
	"volume"		"1.0"
	"soundlevel"	"SNDLVL_80dB"
	"pitch"		"95,110"
	"rndwave"
	{
		"wave"	"vehicles/v8/vehicle_impact_heavy1.wav"
		"wave"	"vehicles/v8/vehicle_impact_heavy2.wav"
		"wave"	"vehicles/v8/vehicle_impact_heavy3.wav"
		"wave"	"vehicles/v8/vehicle_impact_heavy4.wav"
	}
}

"D90_impact_medium"
{
	"channel"		"CHAN_STATIC"
	"volume"		"1.0"
	"soundlevel"	"SNDLVL_80dB"
	"pitch"		"95,110"
	"rndwave"
	{
		"wave"	"vehicles/v8/vehicle_impact_medium1.wav"
		"wave"	"vehicles/v8/vehicle_impact_medium2.wav"
		"wave"	"vehicles/v8/vehicle_impact_medium3.wav"
		"wave"	"vehicles/v8/vehicle_impact_medium4.wav"
	}
}

"D90_rollover"
{
	"channel"		"CHAN_STATIC"
	"volume"		"1.0"
	"soundlevel"	"SNDLVL_80dB"
	"pitch"		"95,110"
	"rndwave"
	{
		"wave"	"vehicles/v8/vehicle_rollover1.wav"
		"wave"	"vehicles/v8/vehicle_rollover2.wav"
	}
}


"D90_turbo_on"
{
	"channel"		"CHAN_ITEM"
	"volume"		"1.0"
	"soundlevel"	"SNDLVL_80dB"
	"pitch"		"90,110"
	//"wave"		"vehicles/vehicle_turbo_loop3.wav"
	"wave"		"vehicles/d90/turbo.mp3"
}

"D90_turbo_off"
{
	"channel"		"CHAN_ITEM"
	"volume"		"1.0"
	"soundlevel"	"SNDLVL_80dB"
	"pitch"		"90,110"
	//"wave"		"vehicles/vehicle_turbo_off1.wav"
	"wave"		"vehicles/v8/v8_turbo_off.wav"
}

"D90_start_in_water"
{
	"channel"		"CHAN_VOICE"
	"volume"		"1.0"
	"soundlevel"	"SNDLVL_80dB"
	"pitch"			"100"
	"wave"			"vehicles/jetski/jetski_no_gas_start.wav"
}

"D90_stall_in_water"
{
	"channel"		"CHAN_VOICE"
	"volume"		"1.0"
	"soundlevel"	"SNDLVL_80dB"
	"pitch"			"100"
	"wave"			"vehicles/jetski/jetski_off.wav"
}

// ******************************
// ENZO


"enzo_engine_idle"
{
	"channel"		"CHAN_STATIC"
	"volume"		"1.0"
	"soundlevel"	"SNDLVL_80dB"

	//"wave"		"vehicles/atv_idle_loop1.mp3"
	"wave"		"vehicles/enzo/idle.wav"
}

"enzo_engine_null"
{
	"channel"		"CHAN_STATIC"
	"volume"		"1.0"
	"soundlevel"	"SNDLVL_80dB"

	"wave"		"common/null.wav"
}

"enzo_engine_start"
{
	"channel"		"CHAN_STATIC"
	"volume"		"1.0"
	"soundlevel"	"SNDLVL_80dB"
	//"mp3e"		"vehicles/atv_start_loop1.mp3"
	"wave"		"vehicles/enzo/start.mp3"
}

"enzo_engine_stop"
{
	"channel"		"CHAN_STATIC"
	"volume"		"1.0"
	"soundlevel"	"SNDLVL_80dB"

	//"wave"		"common/null.mp3"
	"wave"		"vehicles/enzo/shutdown.mp3"
}

"enzo_rev"
{
	"channel"		"CHAN_STATIC"
	"volume"		"0.9"
	"soundlevel"	"SNDLVL_80dB"
	"pitch"		"50,205"
	"wave"		"vehicles/enzo/revving.wav"

//	"rndwave"
//	{
//		"wave"		"vehicles/enzo/revving.mp3"
//		"wave"		"vehicles/enzo/revving.mp3"
//	}
}

"enzo_reverse"
{
	"channel"		"CHAN_STATIC"
	"volume"		"1.0"
	"soundlevel"	"SNDLVL_80dB"
	"pitch"			"100"
	"wave"			"vehicles/enzo/reverse.wav"
}


"enzo_firstgear"
{
	"channel"		"CHAN_STATIC"
	"volume"		"1.0"
	"soundlevel"	"SNDLVL_80dB"
	"pitch"		"100"
	//"wave"		"vehicles/v8/v8_firstgear_rev_loop1.mp3"
	"wave"		"vehicles/enzo/1stgear.wav"
}

"enzo_secondgear"
{
	"channel"		"CHAN_STATIC"
	"volume"		"1.0"
	"soundlevel"	"SNDLVL_80dB"
	"pitch"		"90,105"
	//"wave"		"vehicles/atv_secondgear_to_fullthrottle_loop1.mp3"
	//"wave"		"vehicles/v8/v8_secondgear_loop1.mp3"
	"wave"		"vehicles/enzo/2ndgear.wav"
}

"enzo_thirdgear"
{
	"channel"		"CHAN_STATIC"
	"volume"		"1.0"
	"soundlevel"	"SNDLVL_80dB"
	"pitch"		"90,105"
	//"wave"		"vehicles/atv_thirdgear_to_fullthrottle_loop1.mp3"
	//"wave"		"vehicles/v8/v8_secondgear_loop1.mp3"
	"wave"		"vehicles/enzo/3rdgear.wav"
}

"enzo_fourthgear"
{
	"channel"		"CHAN_STATIC"
	"volume"		"1.0"
	"soundlevel"	"SNDLVL_80dB"
	"pitch"		"105,105"
	"wave"		"vehicles/enzo/4thcruise.wav"
}

"enzo_firstgear_noshift"
{
	"channel"		"CHAN_STATIC"
	"volume"		"1.0"
	"soundlevel"	"SNDLVL_80dB"
	"pitch"		"105,105"
	// NOTE: This needs to be a looping sound
	"wave"		"vehicles/enzo/1stgear.wav"
}
"enzo_secondgear_noshift"
{
	"channel"		"CHAN_STATIC"
	"volume"		"1.0"
	"soundlevel"	"SNDLVL_80dB"
	"pitch"		"105,105"
	// NOTE: This needs to be a looping sound
	"wave"		"vehicles/enzo/1stgear.wav"
}
"enzo_thirdgear_noshift"
{
	"channel"		"CHAN_STATIC"
	"volume"		"1.0"
	"soundlevel"	"SNDLVL_80dB"
	"pitch"		"105,105"
	// NOTE: This needs to be a looping sound
	"wave"		"vehicles/enzo/1stgear.wav"
}

"enzo_fourthgear_noshift"
{
	"channel"		"CHAN_STATIC"
	"volume"		"1.0"
	"soundlevel"	"SNDLVL_80dB"
	"pitch"		"105,105"
	// NOTE: This needs to be a looping sound
	"wave"		"vehicles/enzo/4thcruise.wav"
}

"enzo_downshift_to_2nd"
{
	"channel"		"CHAN_STATIC"
	"volume"		"1.0"
	"soundlevel"	"SNDLVL_80dB"
	"pitch"		"90,105"
	//"wave"		"vehicles/atv_downshift_to_2nd_loop1.mp3"
	"wave"		"vehicles/v8/first_rev.mp3"
	//"wave"		"vehicles/enzo/idle.mp3"
	//"wave"		"common/null.mp3"
}

"enzo_downshift_to_1st"
{
	"channel"		"CHAN_STATIC"
	"volume"		"1.0"
	"soundlevel"	"SNDLVL_80dB"
	"pitch"		"90,105"
	//"wave"		"vehicles/atv_downshift_to_1st_loop1.mp3"
	"wave"		"vehicles/enzo/throttleofffast.wav"
	//"wave"		"vehicles/enzo/idle.mp3"
	//"wave"		"common/null.mp3"
}

"enzo_throttleoff_slowspeed"
{
	"channel"		"CHAN_STATIC"
	"volume"		"1.0"
	"soundlevel"	"SNDLVL_80dB"
	"pitch"		"90,105"
	"wave"		"vehicles/enzo/throttleoffslow.wav"
	//"wave"		"vehicles/enzo/idle.mp3"
}

"enzo_throttleoff_fastspeed"
{
	"channel"		"CHAN_STATIC"
	"volume"		"1.0"
	"soundlevel"	"SNDLVL_80dB"
	"pitch"		"90,105"
	//"wave"		"vehicles/atv_throttleoff_loop1.mp3"
	"wave"		"vehicles/enzo/throttleofffast.wav"
	//"wave"		"common/null.mp3"
}

"enzo_skid_lowfriction"
{
	"channel"		"CHAN_BODY"
	"volume"		"1.0"
	"soundlevel"	"SNDLVL_80dB"
	"pitch"		"90,110"
	//"wave"		"vehicles/atv_skid_lowfriction.mp3"
	"wave"		"vehicles/v8/skid_lowfriction.wav"
}

"enzo_skid_normalfriction"
{
	"channel"		"CHAN_BODY"
	"volume"		"1.0"
	"soundlevel"	"SNDLVL_80dB"
	"pitch"		"90,110"
	//"wave"		"vehicles/atv_skid_normalfriction.mp3"
	"wave"		"vehicles/v8/skid_normalfriction.wav"
}

"enzo_skid_highfriction"
{
	"channel"		"CHAN_BODY"
	"volume"		"1.0"
	"soundlevel"	"SNDLVL_80dB"
	"pitch"		"90,110"
	//"wave"		"vehicles/atv_skid_highfriction.wav"
	"wave"		"vehicles/v8/skid_highfriction.wav"
}

"enzo_impact_heavy"
{
	"channel"		"CHAN_STATIC"
	"volume"		"1.0"
	"soundlevel"	"SNDLVL_80dB"
	"pitch"		"95,110"
	"rndwave"
	{
		"wave"	"vehicles/v8/vehicle_impact_heavy1.wav"
		"wave"	"vehicles/v8/vehicle_impact_heavy2.wav"
		"wave"	"vehicles/v8/vehicle_impact_heavy3.wav"
		"wave"	"vehicles/v8/vehicle_impact_heavy4.wav"
	}
}

"enzo_impact_medium"
{
	"channel"		"CHAN_STATIC"
	"volume"		"1.0"
	"soundlevel"	"SNDLVL_80dB"
	"pitch"		"95,110"
	"rndwave"
	{
		"wave"	"vehicles/v8/vehicle_impact_medium1.wav"
		"wave"	"vehicles/v8/vehicle_impact_medium2.wav"
		"wave"	"vehicles/v8/vehicle_impact_medium3.wav"
		"wave"	"vehicles/v8/vehicle_impact_medium4.wav"
	}
}

"enzo_rollover"
{
	"channel"		"CHAN_STATIC"
	"volume"		"1.0"
	"soundlevel"	"SNDLVL_80dB"
	"pitch"		"95,110"
	"rndwave"
	{
		"wave"	"vehicles/v8/vehicle_rollover1.wav"
		"wave"	"vehicles/v8/vehicle_rollover2.wav"
	}
}


"enzo_turbo_on"
{
	"channel"		"CHAN_ITEM"
	"volume"		"1.0"
	"soundlevel"	"SNDLVL_80dB"
	"pitch"		"90,110"
	//"wave"		"vehicles/vehicle_turbo_loop3.wav"
	"wave"		"vehicles/enzo/turbo.mp3"
}

"enzo_turbo_off"
{
	"channel"		"CHAN_ITEM"
	"volume"		"1.0"
	"soundlevel"	"SNDLVL_80dB"
	"pitch"		"90,110"
	//"wave"		"vehicles/vehicle_turbo_off1.wav"
	"wave"		"vehicles/v8/v8_turbo_off.wav"
}

"enzo_start_in_water"
{
	"channel"		"CHAN_VOICE"
	"volume"		"1.0"
	"soundlevel"	"SNDLVL_80dB"
	"pitch"			"100"
	"wave"			"vehicles/jetski/jetski_no_gas_start.wav"
}

"enzo_stall_in_water"
{
	"channel"		"CHAN_VOICE"
	"volume"		"1.0"
	"soundlevel"	"SNDLVL_80dB"
	"pitch"			"100"
	"wave"			"vehicles/jetski/jetski_off.wav"
}

// ******************************
// KOMATSU


"komatsu_engine_idle"
{
	"channel"		"CHAN_STATIC"
	"volume"		"1.0"
	"soundlevel"	"SNDLVL_80dB"

	//"wave"		"vehicles/atv_idle_loop1.wav"
	"wave"		"vehicles/komatsu/idle.mp3"
}

"komatsu_engine_null"
{
	"channel"		"CHAN_STATIC"
	"volume"		"1.0"
	"soundlevel"	"SNDLVL_80dB"

	"wave"		"common/null.wav"
}

"komatsu_engine_start"
{
	"channel"		"CHAN_STATIC"
	"volume"		"1.0"
	"soundlevel"	"SNDLVL_80dB"
	//"wave"		"vehicles/atv_start_loop1.wav"
	"wave"		"vehicles/komatsu/start.mp3"
}

"komatsu_engine_stop"
{
	"channel"		"CHAN_STATIC"
	"volume"		"1.0"
	"soundlevel"	"SNDLVL_80dB"

	//"wave"		"common/null.wav"
	"wave"		"vehicles/komatsu/shutdown.mp3"
}

"komatsu_rev"
{
	"channel"		"CHAN_STATIC"
	"volume"		"0.9"
	"soundlevel"	"SNDLVL_80dB"
	"pitch"		"98,105"
	"wave"		"vehicles/komatsu/revving.mp3"

//	"rndwave"
//	{
//		"wave"		"vehicles/komatsu/revving.wav"
//		"wave"		"vehicles/komatsu/revving.wav"
//	}
}

"komatsu_reverse"
{
	"channel"		"CHAN_STATIC"
	"volume"		"1.0"
	"soundlevel"	"SNDLVL_80dB"
	"pitch"			"100"
	"wave"			"vehicles/komatsu/reverse.mp3"
}


"komatsu_firstgear"
{
	"channel"		"CHAN_STATIC"
	"volume"		"1.0"
	"soundlevel"	"SNDLVL_80dB"
	"pitch"		"100"
	//"wave"		"vehicles/v8/v8_firstgear_rev_loop1.wav"
	"wave"		"vehicles/komatsu/1stgear.mp3"
}

"komatsu_secondgear"
{
	"channel"		"CHAN_STATIC"
	"volume"		"1.0"
	"soundlevel"	"SNDLVL_80dB"
	"pitch"		"90,105"
	//"wave"		"vehicles/atv_secondgear_to_fullthrottle_loop1.wav"
	//"wave"		"vehicles/v8/v8_secondgear_loop1.wav"
	"wave"		"vehicles/komatsu/2ndgear.mp3"
}

"komatsu_thirdgear"
{
	"channel"		"CHAN_STATIC"
	"volume"		"1.0"
	"soundlevel"	"SNDLVL_80dB"
	"pitch"		"90,105"
	//"wave"		"vehicles/atv_thirdgear_to_fullthrottle_loop1.wav"
	//"wave"		"vehicles/v8/v8_secondgear_loop1.wav"
	"wave"		"vehicles/komatsu/3rdgear.mp3"
}

"komatsu_fourthgear"
{
	"channel"		"CHAN_STATIC"
	"volume"		"1.0"
	"soundlevel"	"SNDLVL_80dB"
	"pitch"		"105,105"
	"wave"		"vehicles/komatsu/4thcruise.mp3"
}

"komatsu_firstgear_noshift"
{
	"channel"		"CHAN_STATIC"
	"volume"		"1.0"
	"soundlevel"	"SNDLVL_80dB"
	"pitch"		"105,105"
	// NOTE: This needs to be a looping sound
	"wave"		"vehicles/komatsu/1stgear.mp3"
}
"komatsu_secondgear_noshift"
{
	"channel"		"CHAN_STATIC"
	"volume"		"1.0"
	"soundlevel"	"SNDLVL_80dB"
	"pitch"		"105,105"
	// NOTE: This needs to be a looping sound
	"wave"		"vehicles/komatsu/1stgear.mp3"
}
"komatsu_thirdgear_noshift"
{
	"channel"		"CHAN_STATIC"
	"volume"		"1.0"
	"soundlevel"	"SNDLVL_80dB"
	"pitch"		"105,105"
	// NOTE: This needs to be a looping sound
	"wave"		"vehicles/komatsu/1stgear.mp3"
}

"komatsu_fourthgear_noshift"
{
	"channel"		"CHAN_STATIC"
	"volume"		"1.0"
	"soundlevel"	"SNDLVL_80dB"
	"pitch"		"105,105"
	// NOTE: This needs to be a looping sound
	"wave"		"vehicles/komatsu/4thcruise.mp3"
}

"komatsu_downshift_to_2nd"
{
	"channel"		"CHAN_STATIC"
	"volume"		"1.0"
	"soundlevel"	"SNDLVL_80dB"
	"pitch"		"90,105"
	//"wave"		"vehicles/atv_downshift_to_2nd_loop1.wav"
	"wave"		"vehicles/v8/first_rev.wav"
	//"wave"		"vehicles/komatsu/idle.wav"
	//"wave"		"common/null.wav"
}

"komatsu_downshift_to_1st"
{
	"channel"		"CHAN_STATIC"
	"volume"		"1.0"
	"soundlevel"	"SNDLVL_80dB"
	"pitch"		"90,105"
	//"wave"		"vehicles/atv_downshift_to_1st_loop1.wav"
	"wave"		"vehicles/komatsu/throttleofffast.mp3"
	//"wave"		"vehicles/komatsu/idle.wav"
	//"wave"		"common/null.wav"
}

"komatsu_throttleoff_slowspeed"
{
	"channel"		"CHAN_STATIC"
	"volume"		"1.0"
	"soundlevel"	"SNDLVL_80dB"
	"pitch"		"90,105"
	"wave"		"vehicles/komatsu/throttleofffast.mp3"
	//"wave"		"vehicles/komatsu/idle.wav"
}

"komatsu_throttleoff_fastspeed"
{
	"channel"		"CHAN_STATIC"
	"volume"		"1.0"
	"soundlevel"	"SNDLVL_80dB"
	"pitch"		"90,105"
	//"wave"		"vehicles/atv_throttleoff_loop1.wav"
	"wave"		"vehicles/komatsu/throttleofffast.mp3"
	//"wave"		"common/null.wav"
}

"komatsu_skid_lowfriction"
{
	"channel"		"CHAN_BODY"
	"volume"		"1.0"
	"soundlevel"	"SNDLVL_80dB"
	"pitch"		"90,110"
	//"wave"		"vehicles/atv_skid_lowfriction.wav"
	"wave"		"vehicles/v8/skid_lowfriction.wav"
}

"komatsu_skid_normalfriction"
{
	"channel"		"CHAN_BODY"
	"volume"		"1.0"
	"soundlevel"	"SNDLVL_80dB"
	"pitch"		"90,110"
	//"wave"		"vehicles/atv_skid_normalfriction.wav"
	"wave"		"vehicles/v8/skid_normalfriction.wav"
}

"komatsu_skid_highfriction"
{
	"channel"		"CHAN_BODY"
	"volume"		"1.0"
	"soundlevel"	"SNDLVL_80dB"
	"pitch"		"90,110"
	//"wave"		"vehicles/atv_skid_highfriction.wav"
	"wave"		"vehicles/v8/skid_highfriction.wav"
}

"komatsu_impact_heavy"
{
	"channel"		"CHAN_STATIC"
	"volume"		"1.0"
	"soundlevel"	"SNDLVL_80dB"
	"pitch"		"95,110"
	"rndwave"
	{
		"wave"	"vehicles/v8/vehicle_impact_heavy1.wav"
		"wave"	"vehicles/v8/vehicle_impact_heavy2.wav"
		"wave"	"vehicles/v8/vehicle_impact_heavy3.wav"
		"wave"	"vehicles/v8/vehicle_impact_heavy4.wav"
	}
}

"komatsu_impact_medium"
{
	"channel"		"CHAN_STATIC"
	"volume"		"1.0"
	"soundlevel"	"SNDLVL_80dB"
	"pitch"		"95,110"
	"rndwave"
	{
		"wave"	"vehicles/v8/vehicle_impact_medium1.wav"
		"wave"	"vehicles/v8/vehicle_impact_medium2.wav"
		"wave"	"vehicles/v8/vehicle_impact_medium3.wav"
		"wave"	"vehicles/v8/vehicle_impact_medium4.wav"
	}
}

"komatsu_rollover"
{
	"channel"		"CHAN_STATIC"
	"volume"		"1.0"
	"soundlevel"	"SNDLVL_80dB"
	"pitch"		"95,110"
	"rndwave"
	{
		"wave"	"vehicles/v8/vehicle_rollover1.wav"
		"wave"	"vehicles/v8/vehicle_rollover2.wav"
	}
}


"komatsu_turbo_on"
{
	"channel"		"CHAN_ITEM"
	"volume"		"1.0"
	"soundlevel"	"SNDLVL_80dB"
	"pitch"		"90,110"
	//"wave"		"vehicles/vehicle_turbo_loop3.wav"
	"wave"		"vehicles/komatsu/turbo.mp3"
}

"komatsu_turbo_off"
{
	"channel"		"CHAN_ITEM"
	"volume"		"1.0"
	"soundlevel"	"SNDLVL_80dB"
	"pitch"		"90,110"
	//"wave"		"vehicles/vehicle_turbo_off1.wav"
	"wave"		"vehicles/v8/v8_turbo_off.wav"
}

"komatsu_start_in_water"
{
	"channel"		"CHAN_VOICE"
	"volume"		"1.0"
	"soundlevel"	"SNDLVL_80dB"
	"pitch"			"100"
	"wave"			"vehicles/jetski/jetski_no_gas_start.wav"
}

"komatsu_stall_in_water"
{
	"channel"		"CHAN_VOICE"
	"volume"		"1.0"
	"soundlevel"	"SNDLVL_80dB"
	"pitch"			"100"
	"wave"			"vehicles/jetski/jetski_off.wav"
}

// ******************************
// volvo


"volvo_engine_idle"
{
	"channel"		"CHAN_STATIC"
	"volume"		"1.0"
	"soundlevel"	"SNDLVL_80dB"

	//"wave"		"vehicles/atv_idle_loop1.wav"
	"wave"		"vehicles/volvo/idle.wav"
}

"volvo_engine_null"
{
	"channel"		"CHAN_STATIC"
	"volume"		"1.0"
	"soundlevel"	"SNDLVL_80dB"

	"wave"		"common/null.wav"
}

"volvo_engine_start"
{
	"channel"		"CHAN_STATIC"
	"volume"		"1.0"
	"soundlevel"	"SNDLVL_80dB"
	//"wave"		"vehicles/atv_start_loop1.wav"
	"wave"		"vehicles/volvo/start.mp3"
}

"volvo_engine_stop"
{
	"channel"		"CHAN_STATIC"
	"volume"		"1.0"
	"soundlevel"	"SNDLVL_80dB"

	//"wave"		"common/null.wav"
	"wave"		"vehicles/volvo/shutdown.mp3"
}

"volvo_rev"
{
	"channel"		"CHAN_STATIC"
	"volume"		"0.9"
	"soundlevel"	"SNDLVL_80dB"
	"pitch"		"98,105"
	"wave"		"vehicles/volvo/revving.wav"


}

"volvo_reverse"
{
	"channel"		"CHAN_STATIC"
	"volume"		"1.0"
	"soundlevel"	"SNDLVL_80dB"
	"pitch"			"100"
	"wave"			"vehicles/volvo/reverse.wav"
}


"volvo_firstgear"
{
	"channel"		"CHAN_STATIC"
	"volume"		"1.0"
	"soundlevel"	"SNDLVL_80dB"
	"pitch"		"100"
	//"wave"		"vehicles/v8/v8_firstgear_rev_loop1.wav"
	"wave"		"vehicles/volvo/1stgear.wav"
}

"volvo_secondgear"
{
	"channel"		"CHAN_STATIC"
	"volume"		"1.0"
	"soundlevel"	"SNDLVL_80dB"
	"pitch"		"90,105"
	//"wave"		"vehicles/atv_secondgear_to_fullthrottle_loop1.wav"
	//"wave"		"vehicles/v8/v8_secondgear_loop1.wav"
	"wave"		"vehicles/volvo/2ndgear.wav"
}

"volvo_thirdgear"
{
	"channel"		"CHAN_STATIC"
	"volume"		"1.0"
	"soundlevel"	"SNDLVL_80dB"
	"pitch"		"90,105"
	//"wave"		"vehicles/atv_thirdgear_to_fullthrottle_loop1.wav"
	//"wave"		"vehicles/v8/v8_secondgear_loop1.wav"
	"wave"		"vehicles/volvo/3rdgear.wav"
}

"volvo_fourthgear"
{
	"channel"		"CHAN_STATIC"
	"volume"		"1.0"
	"soundlevel"	"SNDLVL_80dB"
	"pitch"		"105,105"
	"wave"		"vehicles/volvo/4thcruise.wav"
}

"volvo_firstgear_noshift"
{
	"channel"		"CHAN_STATIC"
	"volume"		"1.0"
	"soundlevel"	"SNDLVL_80dB"
	"pitch"		"105,105"
	// NOTE: This needs to be a looping sound
	"wave"		"vehicles/volvo/1stgear.wav"
}
"volvo_secondgear_noshift"
{
	"channel"		"CHAN_STATIC"
	"volume"		"1.0"
	"soundlevel"	"SNDLVL_80dB"
	"pitch"		"105,105"
	// NOTE: This needs to be a looping sound
	"wave"		"vehicles/volvo/1stgear.wav"
}
"volvo_thirdgear_noshift"
{
	"channel"		"CHAN_STATIC"
	"volume"		"1.0"
	"soundlevel"	"SNDLVL_80dB"
	"pitch"		"105,105"
	// NOTE: This needs to be a looping sound
	"wave"		"vehicles/volvo/1stgear.wav"
}

"volvo_fourthgear_noshift"
{
	"channel"		"CHAN_STATIC"
	"volume"		"1.0"
	"soundlevel"	"SNDLVL_80dB"
	"pitch"		"105,105"
	// NOTE: This needs to be a looping sound
	"wave"		"vehicles/volvo/4thcruise.wav"
}

"volvo_downshift_to_2nd"
{
	"channel"		"CHAN_STATIC"
	"volume"		"1.0"
	"soundlevel"	"SNDLVL_80dB"
	"pitch"		"90,105"
	//"wave"		"vehicles/atv_downshift_to_2nd_loop1.wav"
	"wave"		"vehicles/v8/first_rev.wav"
	//"wave"		"vehicles/volvo/idle.wav"
	//"wave"		"common/null.wav"
}

"volvo_downshift_to_1st"
{
	"channel"		"CHAN_STATIC"
	"volume"		"1.0"
	"soundlevel"	"SNDLVL_80dB"
	"pitch"		"90,105"
	//"wave"		"vehicles/atv_downshift_to_1st_loop1.wav"
	"wave"		"vehicles/volvo/throttleofffast.wav"
	//"wave"		"vehicles/volvo/idle.wav"
	//"wave"		"common/null.wav"
}

"volvo_throttleoff_slowspeed"
{
	"channel"		"CHAN_STATIC"
	"volume"		"1.0"
	"soundlevel"	"SNDLVL_80dB"
	"pitch"		"90,105"
	"wave"		"vehicles/volvo/throttleoffslow.wav"
	//"wave"		"vehicles/volvo/idle.wav"
}

"volvo_throttleoff_fastspeed"
{
	"channel"		"CHAN_STATIC"
	"volume"		"1.0"
	"soundlevel"	"SNDLVL_80dB"
	"pitch"		"90,105"
	//"wave"		"vehicles/atv_throttleoff_loop1.wav"
	"wave"		"vehicles/volvo/throttleofffast.wav"
	//"wave"		"common/null.wav"
}

"volvo_skid_lowfriction"
{
	"channel"		"CHAN_BODY"
	"volume"		"1.0"
	"soundlevel"	"SNDLVL_80dB"
	"pitch"		"90,110"
	//"wave"		"vehicles/atv_skid_lowfriction.wav"
	"wave"		"vehicles/v8/skid_lowfriction.wav"
}

"volvo_skid_normalfriction"
{
	"channel"		"CHAN_BODY"
	"volume"		"1.0"
	"soundlevel"	"SNDLVL_80dB"
	"pitch"		"90,110"
	//"wave"		"vehicles/atv_skid_normalfriction.wav"
	"wave"		"vehicles/v8/skid_normalfriction.wav"
}

"volvo_skid_highfriction"
{
	"channel"		"CHAN_BODY"
	"volume"		"1.0"
	"soundlevel"	"SNDLVL_80dB"
	"pitch"		"90,110"
	//"wave"		"vehicles/atv_skid_highfriction.wav"
	"wave"		"vehicles/v8/skid_highfriction.wav"
}

"volvo_impact_heavy"
{
	"channel"		"CHAN_STATIC"
	"volume"		"1.0"
	"soundlevel"	"SNDLVL_80dB"
	"pitch"		"95,110"
	"rndwave"
	{
		"wave"	"vehicles/v8/vehicle_impact_heavy1.wav"
		"wave"	"vehicles/v8/vehicle_impact_heavy2.wav"
		"wave"	"vehicles/v8/vehicle_impact_heavy3.wav"
		"wave"	"vehicles/v8/vehicle_impact_heavy4.wav"
	}
}

"volvo_impact_medium"
{
	"channel"		"CHAN_STATIC"
	"volume"		"1.0"
	"soundlevel"	"SNDLVL_80dB"
	"pitch"		"95,110"
	"rndwave"
	{
		"wave"	"vehicles/v8/vehicle_impact_medium1.wav"
		"wave"	"vehicles/v8/vehicle_impact_medium2.wav"
		"wave"	"vehicles/v8/vehicle_impact_medium3.wav"
		"wave"	"vehicles/v8/vehicle_impact_medium4.wav"
	}
}

"volvo_rollover"
{
	"channel"		"CHAN_STATIC"
	"volume"		"1.0"
	"soundlevel"	"SNDLVL_80dB"
	"pitch"		"95,110"
	"rndwave"
	{
		"wave"	"vehicles/v8/vehicle_rollover1.wav"
		"wave"	"vehicles/v8/vehicle_rollover2.wav"
	}
}


"volvo_turbo_on"
{
	"channel"		"CHAN_ITEM"
	"volume"		"1.0"
	"soundlevel"	"SNDLVL_80dB"
	"pitch"		"90,110"
	//"wave"		"vehicles/vehicle_turbo_loop3.wav"
	"wave"		"vehicles/volvo/turbo.mp3"
}

"volvo_turbo_off"
{
	"channel"		"CHAN_ITEM"
	"volume"		"1.0"
	"soundlevel"	"SNDLVL_80dB"
	"pitch"		"90,110"
	//"wave"		"vehicles/vehicle_turbo_off1.wav"
	"wave"		"vehicles/v8/v8_turbo_off.wav"
}

"volvo_start_in_water"
{
	"channel"		"CHAN_VOICE"
	"volume"		"1.0"
	"soundlevel"	"SNDLVL_80dB"
	"pitch"			"100"
	"wave"			"vehicles/jetski/jetski_no_gas_start.wav"
}

"volvo_stall_in_water"
{
	"channel"		"CHAN_VOICE"
	"volume"		"1.0"
	"soundlevel"	"SNDLVL_80dB"
	"pitch"			"100"
	"wave"			"vehicles/jetski/jetski_off.wav"
}

// ******************************
// Monster Truck


"mtruck_engine_idle"
{
	"channel"		"CHAN_STATIC"
	"volume"		"1.0"
	"soundlevel"	"SNDLVL_80dB"

	//"wave"		"vehicles/atv_idle_loop1.wav"
	"wave"		"vehicles/mtruck/idle.wav"
}

"mtruck_engine_null"
{
	"channel"		"CHAN_STATIC"
	"volume"		"1.0"
	"soundlevel"	"SNDLVL_80dB"

	"wave"		"common/null.wav"
}

"mtruck_engine_start"
{
	"channel"		"CHAN_STATIC"
	"volume"		"1.0"
	"soundlevel"	"SNDLVL_80dB"
	//"wave"		"vehicles/atv_start_loop1.wav"
	"wave"		"vehicles/mtruck/start.mp3"
}

"mtruck_engine_stop"
{
	"channel"		"CHAN_STATIC"
	"volume"		"1.0"
	"soundlevel"	"SNDLVL_80dB"

	//"wave"		"common/null.wav"
	"wave"		"vehicles/mtruck/shutdown.mp3"
}

"mtruck_rev"
{
	"channel"		"CHAN_STATIC"
	"volume"		"0.9"
	"soundlevel"	"SNDLVL_80dB"
	"pitch"		"98,105"
	"wave"		"vehicles/mtruck/rev.wav"

//	"rndwave"
//	{
//		"wave"		"vehicles/mtruck/revving.wav"
//		"wave"		"vehicles/mtruck/revving.wav"
//	}
}

"mtruck_reverse"
{
	"channel"		"CHAN_STATIC"
	"volume"		"1.0"
	"soundlevel"	"SNDLVL_80dB"
	"pitch"			"100"
	"wave"			"vehicles/mtruck/reverse.wav"
}


"mtruck_firstgear"
{
	"channel"		"CHAN_STATIC"
	"volume"		"1.0"
	"soundlevel"	"SNDLVL_80dB"
	"pitch"		"100"
	//"wave"		"vehicles/v8/v8_firstgear_rev_loop1.wav"
	"wave"		"vehicles/mtruck/1stgear.wav"
}

"mtruck_secondgear"
{
	"channel"		"CHAN_STATIC"
	"volume"		"1.0"
	"soundlevel"	"SNDLVL_80dB"
	"pitch"		"90,105"
	//"wave"		"vehicles/atv_secondgear_to_fullthrottle_loop1.wav"
	//"wave"		"vehicles/v8/v8_secondgear_loop1.wav"
	"wave"		"vehicles/mtruck/1stgear.wav"
}

"mtruck_thirdgear"
{
	"channel"		"CHAN_STATIC"
	"volume"		"1.0"
	"soundlevel"	"SNDLVL_80dB"
	"pitch"		"90,105"
	//"wave"		"vehicles/atv_thirdgear_to_fullthrottle_loop1.wav"
	//"wave"		"vehicles/v8/v8_secondgear_loop1.wav"
	"wave"		"vehicles/mtruck/1stgear.wav"
}

"mtruck_fourthgear"
{
	"channel"		"CHAN_STATIC"
	"volume"		"1.0"
	"soundlevel"	"SNDLVL_80dB"
	"pitch"		"105,105"
	"wave"		"vehicles/mtruck/1stgear.wav"
}

"mtruck_firstgear_noshift"
{
	"channel"		"CHAN_STATIC"
	"volume"		"1.0"
	"soundlevel"	"SNDLVL_80dB"
	"pitch"		"105,105"
	// NOTE: This needs to be a looping sound
	"wave"		"vehicles/mtruck/1stgear.awv"
}
"mtruck_secondgear_noshift"
{
	"channel"		"CHAN_STATIC"
	"volume"		"1.0"
	"soundlevel"	"SNDLVL_80dB"
	"pitch"		"105,105"
	// NOTE: This needs to be a looping sound
	"wave"		"vehicles/mtruck/1stgear.wav"
}
"mtruck_thirdgear_noshift"
{
	"channel"		"CHAN_STATIC"
	"volume"		"1.0"
	"soundlevel"	"SNDLVL_80dB"
	"pitch"		"105,105"
	// NOTE: This needs to be a looping sound
	"wave"		"vehicles/mtruck/1stgear.wav"
}

"mtruck_fourthgear_noshift"
{
	"channel"		"CHAN_STATIC"
	"volume"		"1.0"
	"soundlevel"	"SNDLVL_80dB"
	"pitch"		"105,105"
	// NOTE: This needs to be a looping sound
	"wave"		"vehicles/mtruck/1stgear.wav"
}

"mtruck_downshift_to_2nd"
{
	"channel"		"CHAN_STATIC"
	"volume"		"1.0"
	"soundlevel"	"SNDLVL_80dB"
	"pitch"		"90,105"
	//"wave"		"vehicles/atv_downshift_to_2nd_loop1.wav"
	"wave"		"vehicles/v8/first_rev.wav"
	//"wave"		"vehicles/mtruck/idle.wav"
	//"wave"		"common/null.wav"
}

"mtruck_downshift_to_1st"
{
	"channel"		"CHAN_STATIC"
	"volume"		"1.0"
	"soundlevel"	"SNDLVL_80dB"
	"pitch"		"90,105"
	//"wave"		"vehicles/atv_downshift_to_1st_loop1.wav"
	"wave"		"vehicles/mtruck/throttleofffast.wav"
	//"wave"		"vehicles/mtruck/idle.wav"
	//"wave"		"common/null.wav"
}

"mtruck_throttleoff_slowspeed"
{
	"channel"		"CHAN_STATIC"
	"volume"		"1.0"
	"soundlevel"	"SNDLVL_80dB"
	"pitch"		"90,105"
	"wave"		"vehicles/mtruck/rev.wav"
	//"wave"		"vehicles/mtruck/idle.wav"
}

"mtruck_throttleoff_fastspeed"
{
	"channel"		"CHAN_STATIC"
	"volume"		"1.0"
	"soundlevel"	"SNDLVL_80dB"
	"pitch"		"90,105"
	//"wave"		"vehicles/atv_throttleoff_loop1.wav"
	"wave"		"vehicles/mtruck/drivedwn.wav"
	//"wave"		"common/null.wav"
}

"mtruck_skid_lowfriction"
{
	"channel"		"CHAN_BODY"
	"volume"		"1.0"
	"soundlevel"	"SNDLVL_80dB"
	"pitch"		"90,110"
	//"wave"		"vehicles/atv_skid_lowfriction.wav"
	"wave"		"vehicles/v8/skid_lowfriction.wav"
}

"mtruck_skid_normalfriction"
{
	"channel"		"CHAN_BODY"
	"volume"		"1.0"
	"soundlevel"	"SNDLVL_80dB"
	"pitch"		"90,110"
	//"wave"		"vehicles/atv_skid_normalfriction.wav"
	"wave"		"vehicles/v8/skid_normalfriction.wav"
}

"mtruck_skid_highfriction"
{
	"channel"		"CHAN_BODY"
	"volume"		"1.0"
	"soundlevel"	"SNDLVL_80dB"
	"pitch"		"90,110"
	//"wave"		"vehicles/atv_skid_highfriction.wav"
	"wave"		"vehicles/v8/skid_highfriction.wav"
}

"mtruck_impact_heavy"
{
	"channel"		"CHAN_STATIC"
	"volume"		"1.0"
	"soundlevel"	"SNDLVL_80dB"
	"pitch"		"95,110"
	"rndwave"
	{
		"wave"	"vehicles/v8/vehicle_impact_heavy1.wav"
		"wave"	"vehicles/v8/vehicle_impact_heavy2.wav"
		"wave"	"vehicles/v8/vehicle_impact_heavy3.wav"
		"wave"	"vehicles/v8/vehicle_impact_heavy4.wav"
	}
}

"mtruck_impact_medium"
{
	"channel"		"CHAN_STATIC"
	"volume"		"1.0"
	"soundlevel"	"SNDLVL_80dB"
	"pitch"		"95,110"
	"rndwave"
	{
		"wave"	"vehicles/v8/vehicle_impact_medium1.wav"
		"wave"	"vehicles/v8/vehicle_impact_medium2.wav"
		"wave"	"vehicles/v8/vehicle_impact_medium3.wav"
		"wave"	"vehicles/v8/vehicle_impact_medium4.wav"
	}
}

"mtruck_rollover"
{
	"channel"		"CHAN_STATIC"
	"volume"		"1.0"
	"soundlevel"	"SNDLVL_80dB"
	"pitch"		"95,110"
	"rndwave"
	{
		"wave"	"vehicles/v8/vehicle_rollover1.wav"
		"wave"	"vehicles/v8/vehicle_rollover2.wav"
	}
}


"mtruck_turbo_on"
{
	"channel"		"CHAN_ITEM"
	"volume"		"1.0"
	"soundlevel"	"SNDLVL_80dB"
	"pitch"		"90,110"
	//"wave"		"vehicles/vehicle_turbo_loop3.wav"
	"wave"		"vehicles/mtruck/turbo.mp3"
}

"mtruck_turbo_off"
{
	"channel"		"CHAN_ITEM"
	"volume"		"1.0"
	"soundlevel"	"SNDLVL_80dB"
	"pitch"		"90,110"
	//"wave"		"vehicles/vehicle_turbo_off1.wav"
	"wave"		"vehicles/v8/v8_turbo_off.wav"
}

"mtruck_start_in_water"
{
	"channel"		"CHAN_VOICE"
	"volume"		"1.0"
	"soundlevel"	"SNDLVL_80dB"
	"pitch"			"100"
	"wave"			"vehicles/jetski/jetski_no_gas_start.wav"
}

"mtruck_stall_in_water"
{
	"channel"		"CHAN_VOICE"
	"volume"		"1.0"
	"soundlevel"	"SNDLVL_80dB"
	"pitch"			"100"
	"wave"			"vehicles/jetski/jetski_off.wav"
}

// ******************************
// socar2


"socar2_engine_idle"
{
	"channel"		"CHAN_STATIC"
	"volume"		"1.0"
	"soundlevel"	"SNDLVL_80dB"

	"wave"		"vehicles/socar2/idle.mp3"
}

"socar2_engine_null"
{
	"channel"		"CHAN_STATIC"
	"volume"		"1.0"
	"soundlevel"	"SNDLVL_80dB"

	"wave"		"common/null.wav"
}

"socar2_engine_start"
{
	"channel"		"CHAN_STATIC"
	"volume"		"1.0"
	"soundlevel"	"SNDLVL_80dB"
	//"wave"		"vehicles/atv_start_loop1.wav"
	"wave"		"vehicles/socar2/start.mp3"
}

"socar2_engine_stop"
{
	"channel"		"CHAN_STATIC"
	"volume"		"1.0"
	"soundlevel"	"SNDLVL_80dB"

	//"wave"		"common/null.wav"
	"wave"		"vehicles/socar2/stop.mp3"
}

"socar2_rev"
{
	"channel"		"CHAN_STATIC"
	"volume"		"0.9"
	"soundlevel"	"SNDLVL_80dB"
	"pitch"		"98,105"
	"wave"		"vehicles/socar2/rev.mp3"

//	"rndwave"
//	{
//		"wave"		"vehicles/socar2/revving.wav"
//		"wave"		"vehicles/socar2/revving.wav"
//	}
}

"socar2_reverse"
{
	"channel"		"CHAN_STATIC"
	"volume"		"1.0"
	"soundlevel"	"SNDLVL_80dB"
	"pitch"			"100"
	"wave"			"vehicles/socar2/reverse.mp3"
}


"socar2_firstgear"
{
	"channel"		"CHAN_STATIC"
	"volume"		"1.0"
	"soundlevel"	"SNDLVL_80dB"
	"pitch"		"100"
	//"wave"		"vehicles/v8/v8_firstgear_rev_loop1.wav"
	"wave"		"vehicles/socar2/1stgear.mp3"
}

"socar2_secondgear"
{
	"channel"		"CHAN_STATIC"
	"volume"		"1.0"
	"soundlevel"	"SNDLVL_80dB"
	"pitch"		"90,105"
	//"wave"		"vehicles/atv_secondgear_to_fullthrottle_loop1.wav"
	//"wave"		"vehicles/v8/v8_secondgear_loop1.wav"
	"wave"		"vehicles/socar2/2ndgear.mp3"
}

"socar2_thirdgear"
{
	"channel"		"CHAN_STATIC"
	"volume"		"1.0"
	"soundlevel"	"SNDLVL_80dB"
	"pitch"		"90,105"
	//"wave"		"vehicles/atv_thirdgear_to_fullthrottle_loop1.wav"
	//"wave"		"vehicles/v8/v8_secondgear_loop1.wav"
	"wave"		"vehicles/socar2/3rdgear.mp3"
}

"socar2_fourthgear"
{
	"channel"		"CHAN_STATIC"
	"volume"		"1.0"
	"soundlevel"	"SNDLVL_80dB"
	"pitch"		"105,105"
	"wave"		"vehicles/socar2/4thgear.mp3"
}

"socar2_firstgear_noshift"
{
	"channel"		"CHAN_STATIC"
	"volume"		"1.0"
	"soundlevel"	"SNDLVL_80dB"
	"pitch"		"105,105"
	// NOTE: This needs to be a looping sound
	"wave"		"vehicles/socar2/1stgear.mp3"
}
"socar2_secondgear_noshift"
{
	"channel"		"CHAN_STATIC"
	"volume"		"1.0"
	"soundlevel"	"SNDLVL_80dB"
	"pitch"		"105,105"
	// NOTE: This needs to be a looping sound
	"wave"		"vehicles/socar2/1stgear.mp3"
}
"socar2_thirdgear_noshift"
{
	"channel"		"CHAN_STATIC"
	"volume"		"1.0"
	"soundlevel"	"SNDLVL_80dB"
	"pitch"		"105,105"
	// NOTE: This needs to be a looping sound
	"wave"		"vehicles/socar2/1stgear.mp3"
}

"socar2_fourthgear_noshift"
{
	"channel"		"CHAN_STATIC"
	"volume"		"1.0"
	"soundlevel"	"SNDLVL_80dB"
	"pitch"		"105,105"
	// NOTE: This needs to be a looping sound
	"wave"		"vehicles/socar2/4thcruise.mp3"
}

"socar2_downshift_to_2nd"
{
	"channel"		"CHAN_STATIC"
	"volume"		"1.0"
	"soundlevel"	"SNDLVL_80dB"
	"pitch"		"90,105"
	//"wave"		"vehicles/atv_downshift_to_2nd_loop1.wav"
	"wave"		"vehicles/v8/bottom.wav"
	//"wave"		"vehicles/socar2/idle.wav"
	//"wave"		"common/null.wav"
}

"socar2_downshift_to_1st"
{
	"channel"		"CHAN_STATIC"
	"volume"		"1.0"
	"soundlevel"	"SNDLVL_80dB"
	"pitch"		"90,105"
	//"wave"		"vehicles/atv_downshift_to_1st_loop1.wav"
	"wave"		"vehicles/socar2/bottom.mp3"
	//"wave"		"vehicles/socar2/idle.wav"
	//"wave"		"common/null.wav"
}

"socar2_throttleoff_slowspeed"
{
	"channel"		"CHAN_STATIC"
	"volume"		"1.0"
	"soundlevel"	"SNDLVL_80dB"
	"pitch"		"90,105"
	"wave"		"vehicles/socar2/slowdwn.mp3"
	//"wave"		"vehicles/socar2/idle.wav"
}

"socar2_throttleoff_fastspeed"
{
	"channel"		"CHAN_STATIC"
	"volume"		"1.0"
	"soundlevel"	"SNDLVL_80dB"
	"pitch"		"90,105"

	"wave"		"vehicles/socar2/fastdwn.mp3"
}

"socar2_skid_lowfriction"
{
	"channel"		"CHAN_BODY"
	"volume"		"1.0"
	"soundlevel"	"SNDLVL_80dB"
	"pitch"		"90,110"
	//"wave"		"vehicles/atv_skid_lowfriction.wav"
	"wave"		"vehicles/v8/skid_lowfriction.wav"
}

"socar2_skid_normalfriction"
{
	"channel"		"CHAN_BODY"
	"volume"		"1.0"
	"soundlevel"	"SNDLVL_80dB"
	"pitch"		"90,110"
	//"wave"		"vehicles/atv_skid_normalfriction.wav"
	"wave"		"vehicles/v8/skid_normalfriction.wav"
}

"socar2_skid_highfriction"
{
	"channel"		"CHAN_BODY"
	"volume"		"1.0"
	"soundlevel"	"SNDLVL_80dB"
	"pitch"		"90,110"
	//"wave"		"vehicles/atv_skid_highfriction.wav"
	"wave"		"vehicles/v8/skid_highfriction.wav"
}

"socar2_impact_heavy"
{
	"channel"		"CHAN_STATIC"
	"volume"		"1.0"
	"soundlevel"	"SNDLVL_80dB"
	"pitch"		"95,110"
	"rndwave"
	{
		"wave"	"vehicles/v8/vehicle_impact_heavy1.wav"
		"wave"	"vehicles/v8/vehicle_impact_heavy2.wav"
		"wave"	"vehicles/v8/vehicle_impact_heavy3.wav"
		"wave"	"vehicles/v8/vehicle_impact_heavy4.wav"
	}
}

"socar2_impact_medium"
{
	"channel"		"CHAN_STATIC"
	"volume"		"1.0"
	"soundlevel"	"SNDLVL_80dB"
	"pitch"		"95,110"
	"rndwave"
	{
		"wave"	"vehicles/v8/vehicle_impact_medium1.wav"
		"wave"	"vehicles/v8/vehicle_impact_medium2.wav"
		"wave"	"vehicles/v8/vehicle_impact_medium3.wav"
		"wave"	"vehicles/v8/vehicle_impact_medium4.wav"
	}
}

"socar2_rollover"
{
	"channel"		"CHAN_STATIC"
	"volume"		"1.0"
	"soundlevel"	"SNDLVL_80dB"
	"pitch"		"95,110"
	"rndwave"
	{
		"wave"	"vehicles/v8/vehicle_rollover1.wav"
		"wave"	"vehicles/v8/vehicle_rollover2.wav"
	}
}


"socar2_turbo_on"
{
	"channel"		"CHAN_ITEM"
	"volume"		"1.0"
	"soundlevel"	"SNDLVL_80dB"
	"pitch"		"90,110"
	//"wave"		"vehicles/vehicle_turbo_loop3.wav"
	"wave"		"vehicles/socar2/turbo.mp3"
}

"socar2_turbo_off"
{
	"channel"		"CHAN_ITEM"
	"volume"		"1.0"
	"soundlevel"	"SNDLVL_80dB"
	"pitch"		"90,110"
	//"wave"		"vehicles/vehicle_turbo_off1.wav"
	"wave"		"vehicles/v8/v8_turbo_off.wav"
}

"socar2_start_in_water"
{
	"channel"		"CHAN_VOICE"
	"volume"		"1.0"
	"soundlevel"	"SNDLVL_80dB"
	"pitch"			"100"
	"wave"			"vehicles/jetski/jetski_no_gas_start.wav"
}

"socar2_stall_in_water"
{
	"channel"		"CHAN_VOICE"
	"volume"		"1.0"
	"soundlevel"	"SNDLVL_80dB"
	"pitch"			"100"
	"wave"			"vehicles/jetski/jetski_off.wav"
}


// ******************************
// socar3


"socar3_engine_idle"
{
	"channel"		"CHAN_STATIC"
	"volume"		"1.0"
	"soundlevel"	"SNDLVL_80dB"

	"wave"		"vehicles/socar3/idle.mp3"
}

"socar3_engine_null"
{
	"channel"		"CHAN_STATIC"
	"volume"		"1.0"
	"soundlevel"	"SNDLVL_80dB"

	"wave"		"common/null.wav"
}

"socar3_engine_start"
{
	"channel"		"CHAN_STATIC"
	"volume"		"1.0"
	"soundlevel"	"SNDLVL_80dB"
	//"wave"		"vehicles/atv_start_loop1.wav"
	"wave"		"vehicles/socar3/start.mp3"
}

"socar3_engine_stop"
{
	"channel"		"CHAN_STATIC"
	"volume"		"1.0"
	"soundlevel"	"SNDLVL_80dB"

	//"wave"		"common/null.wav"
	"wave"		"vehicles/socar3/stop.mp3"
}

"socar3_rev"
{
	"channel"		"CHAN_STATIC"
	"volume"		"0.9"
	"soundlevel"	"SNDLVL_80dB"
	"pitch"		"98,105"
	"wave"		"vehicles/socar3/rev.mp3"

//	"rndwave"
//	{
//		"wave"		"vehicles/socar3/revving.wav"
//		"wave"		"vehicles/socar3/revving.wav"
//	}
}

"socar3_reverse"
{
	"channel"		"CHAN_STATIC"
	"volume"		"1.0"
	"soundlevel"	"SNDLVL_80dB"
	"pitch"			"100"
	"wave"			"vehicles/socar3/reverse.mp3"
}


"socar3_firstgear"
{
	"channel"		"CHAN_STATIC"
	"volume"		"1.0"
	"soundlevel"	"SNDLVL_80dB"
	"pitch"		"100"
	//"wave"		"vehicles/v8/v8_firstgear_rev_loop1.wav"
	"wave"		"vehicles/socar3/1stgear.mp3"
}

"socar3_secondgear"
{
	"channel"		"CHAN_STATIC"
	"volume"		"1.0"
	"soundlevel"	"SNDLVL_80dB"
	"pitch"		"90,105"
	//"wave"		"vehicles/atv_secondgear_to_fullthrottle_loop1.wav"
	//"wave"		"vehicles/v8/v8_secondgear_loop1.wav"
	"wave"		"vehicles/socar3/2ndgear.mp3"
}

"socar3_thirdgear"
{
	"channel"		"CHAN_STATIC"
	"volume"		"1.0"
	"soundlevel"	"SNDLVL_80dB"
	"pitch"		"90,105"
	//"wave"		"vehicles/atv_thirdgear_to_fullthrottle_loop1.wav"
	//"wave"		"vehicles/v8/v8_secondgear_loop1.wav"
	"wave"		"vehicles/socar3/3rdgear.mp3"
}

"socar3_fourthgear"
{
	"channel"		"CHAN_STATIC"
	"volume"		"1.0"
	"soundlevel"	"SNDLVL_80dB"
	"pitch"		"105,105"
	"wave"		"vehicles/socar3/4thgear.mp3"
}

"socar3_firstgear_noshift"
{
	"channel"		"CHAN_STATIC"
	"volume"		"1.0"
	"soundlevel"	"SNDLVL_80dB"
	"pitch"		"105,105"
	// NOTE: This needs to be a looping sound
	"wave"		"vehicles/socar3/1stgear.mp3"
}
"socar3_secondgear_noshift"
{
	"channel"		"CHAN_STATIC"
	"volume"		"1.0"
	"soundlevel"	"SNDLVL_80dB"
	"pitch"		"105,105"
	// NOTE: This needs to be a looping sound
	"wave"		"vehicles/socar3/1stgear.mp3"
}
"socar3_thirdgear_noshift"
{
	"channel"		"CHAN_STATIC"
	"volume"		"1.0"
	"soundlevel"	"SNDLVL_80dB"
	"pitch"		"105,105"
	// NOTE: This needs to be a looping sound
	"wave"		"vehicles/socar3/1stgear.mp3"
}

"socar3_fourthgear_noshift"
{
	"channel"		"CHAN_STATIC"
	"volume"		"1.0"
	"soundlevel"	"SNDLVL_80dB"
	"pitch"		"105,105"
	// NOTE: This needs to be a looping sound
	"wave"		"vehicles/socar3/4thcruise.mp3"
}

"socar3_downshift_to_2nd"
{
	"channel"		"CHAN_STATIC"
	"volume"		"1.0"
	"soundlevel"	"SNDLVL_80dB"
	"pitch"		"90,105"
	//"wave"		"vehicles/atv_downshift_to_2nd_loop1.wav"
	"wave"		"vehicles/v8/bottom.wav"
	//"wave"		"vehicles/socar3/idle.wav"
	//"wave"		"common/null.wav"
}

"socar3_downshift_to_1st"
{
	"channel"		"CHAN_STATIC"
	"volume"		"1.0"
	"soundlevel"	"SNDLVL_80dB"
	"pitch"		"90,105"
	//"wave"		"vehicles/atv_downshift_to_1st_loop1.wav"
	"wave"		"vehicles/socar3/bottom.mp3"
	//"wave"		"vehicles/socar3/idle.wav"
	//"wave"		"common/null.wav"
}

"socar3_throttleoff_slowspeed"
{
	"channel"		"CHAN_STATIC"
	"volume"		"1.0"
	"soundlevel"	"SNDLVL_80dB"
	"pitch"		"90,105"
	"wave"		"vehicles/socar3/slowdwn.mp3"
	//"wave"		"vehicles/socar3/idle.wav"
}

"socar3_throttleoff_fastspeed"
{
	"channel"		"CHAN_STATIC"
	"volume"		"1.0"
	"soundlevel"	"SNDLVL_80dB"
	"pitch"		"90,105"

	"wave"		"vehicles/socar3/fastdwn.mp3"
}

"socar3_skid_lowfriction"
{
	"channel"		"CHAN_BODY"
	"volume"		"1.0"
	"soundlevel"	"SNDLVL_80dB"
	"pitch"		"90,110"
	//"wave"		"vehicles/atv_skid_lowfriction.wav"
	"wave"		"vehicles/v8/skid_lowfriction.wav"
}

"socar3_skid_normalfriction"
{
	"channel"		"CHAN_BODY"
	"volume"		"1.0"
	"soundlevel"	"SNDLVL_80dB"
	"pitch"		"90,110"
	//"wave"		"vehicles/atv_skid_normalfriction.wav"
	"wave"		"vehicles/v8/skid_normalfriction.wav"
}

"socar3_skid_highfriction"
{
	"channel"		"CHAN_BODY"
	"volume"		"1.0"
	"soundlevel"	"SNDLVL_80dB"
	"pitch"		"90,110"
	//"wave"		"vehicles/atv_skid_highfriction.wav"
	"wave"		"vehicles/v8/skid_highfriction.wav"
}

"socar3_impact_heavy"
{
	"channel"		"CHAN_STATIC"
	"volume"		"1.0"
	"soundlevel"	"SNDLVL_80dB"
	"pitch"		"95,110"
	"rndwave"
	{
		"wave"	"vehicles/v8/vehicle_impact_heavy1.wav"
		"wave"	"vehicles/v8/vehicle_impact_heavy2.wav"
		"wave"	"vehicles/v8/vehicle_impact_heavy3.wav"
		"wave"	"vehicles/v8/vehicle_impact_heavy4.wav"
	}
}

"socar3_impact_medium"
{
	"channel"		"CHAN_STATIC"
	"volume"		"1.0"
	"soundlevel"	"SNDLVL_80dB"
	"pitch"		"95,110"
	"rndwave"
	{
		"wave"	"vehicles/v8/vehicle_impact_medium1.wav"
		"wave"	"vehicles/v8/vehicle_impact_medium2.wav"
		"wave"	"vehicles/v8/vehicle_impact_medium3.wav"
		"wave"	"vehicles/v8/vehicle_impact_medium4.wav"
	}
}

"socar3_rollover"
{
	"channel"		"CHAN_STATIC"
	"volume"		"1.0"
	"soundlevel"	"SNDLVL_80dB"
	"pitch"		"95,110"
	"rndwave"
	{
		"wave"	"vehicles/v8/vehicle_rollover1.wav"
		"wave"	"vehicles/v8/vehicle_rollover2.wav"
	}
}


"socar3_turbo_on"
{
	"channel"		"CHAN_ITEM"
	"volume"		"1.0"
	"soundlevel"	"SNDLVL_80dB"
	"pitch"		"90,110"
	//"wave"		"vehicles/vehicle_turbo_loop3.wav"
	"wave"		"vehicles/socar3/turbo.mp3"
}

"socar3_turbo_off"
{
	"channel"		"CHAN_ITEM"
	"volume"		"1.0"
	"soundlevel"	"SNDLVL_80dB"
	"pitch"		"90,110"
	//"wave"		"vehicles/vehicle_turbo_off1.wav"
	"wave"		"vehicles/v8/v8_turbo_off.wav"
}

"socar3_start_in_water"
{
	"channel"		"CHAN_VOICE"
	"volume"		"1.0"
	"soundlevel"	"SNDLVL_80dB"
	"pitch"			"100"
	"wave"			"vehicles/jetski/jetski_no_gas_start.wav"
}

"socar3_stall_in_water"
{
	"channel"		"CHAN_VOICE"
	"volume"		"1.0"
	"soundlevel"	"SNDLVL_80dB"
	"pitch"			"100"
	"wave"			"vehicles/jetski/jetski_off.wav"
}

// ******************************
// socar4


"socar4_engine_idle"
{
	"channel"		"CHAN_STATIC"
	"volume"		"1.0"
	"soundlevel"	"SNDLVL_80dB"

	"wave"		"vehicles/socar4/idle.wav"
}

"socar4_engine_null"
{
	"channel"		"CHAN_STATIC"
	"volume"		"1.0"
	"soundlevel"	"SNDLVL_80dB"

	"wave"		"common/null.wav"
}

"socar4_engine_start"
{
	"channel"		"CHAN_STATIC"
	"volume"		"1.0"
	"soundlevel"	"SNDLVL_80dB"
	//"wave"		"vehicles/atv_start_loop1.wav"
	"wave"		"vehicles/socar4/start.mp3"
}

"socar4_engine_stop"
{
	"channel"		"CHAN_STATIC"
	"volume"		"1.0"
	"soundlevel"	"SNDLVL_80dB"

	//"wave"		"common/null.wav"
	"wave"		"vehicles/socar4/stop.mp3"
}

"socar4_rev"
{
	"channel"		"CHAN_STATIC"
	"volume"		"0.9"
	"soundlevel"	"SNDLVL_80dB"
	"pitch"		"98,105"
	"wave"		"vehicles/socar4/rev.wav"

//	"rndwave"
//	{
//		"wave"		"vehicles/socar4/revving.wav"
//		"wave"		"vehicles/socar4/revving.wav"
//	}
}

"socar4_reverse"
{
	"channel"		"CHAN_STATIC"
	"volume"		"1.0"
	"soundlevel"	"SNDLVL_80dB"
	"pitch"			"100"
	"wave"			"vehicles/socar4/reverse.wav"
}


"socar4_firstgear"
{
	"channel"		"CHAN_STATIC"
	"volume"		"1.0"
	"soundlevel"	"SNDLVL_80dB"
	"pitch"		"20,200"
	//"wave"		"vehicles/v8/v8_firstgear_rev_loop1.wav"
	"wave"		"vehicles/socar4/1stgear.wav"
}

"socar4_secondgear"
{
	"channel"		"CHAN_STATIC"
	"volume"		"1.0"
	"soundlevel"	"SNDLVL_80dB"
	"pitch"		"90,105"
	//"wave"		"vehicles/atv_secondgear_to_fullthrottle_loop1.wav"
	//"wave"		"vehicles/v8/v8_secondgear_loop1.wav"
	"wave"		"vehicles/socar4/2ndgear.wav"
}

"socar4_thirdgear"
{
	"channel"		"CHAN_STATIC"
	"volume"		"1.0"
	"soundlevel"	"SNDLVL_80dB"
	"pitch"		"90,105"
	//"wave"		"vehicles/atv_thirdgear_to_fullthrottle_loop1.wav"
	//"wave"		"vehicles/v8/v8_secondgear_loop1.wav"
	"wave"		"vehicles/socar4/3rdgear.wav"
}

"socar4_fourthgear"
{
	"channel"		"CHAN_STATIC"
	"volume"		"1.0"
	"soundlevel"	"SNDLVL_80dB"
	"pitch"		"105,105"
	"wave"		"vehicles/socar4/4thgear.wav"
}

"socar4_firstgear_noshift"
{
	"channel"		"CHAN_STATIC"
	"volume"		"1.0"
	"soundlevel"	"SNDLVL_80dB"
	"pitch"		"105,105"
	// NOTE: This needs to be a looping sound
	"wave"		"vehicles/socar4/1stgear.wav"
}
"socar4_secondgear_noshift"
{
	"channel"		"CHAN_STATIC"
	"volume"		"1.0"
	"soundlevel"	"SNDLVL_80dB"
	"pitch"		"105,105"
	// NOTE: This needs to be a looping sound
	"wave"		"vehicles/socar4/2ndgear.wav"
}
"socar4_thirdgear_noshift"
{
	"channel"		"CHAN_STATIC"
	"volume"		"1.0"
	"soundlevel"	"SNDLVL_80dB"
	"pitch"		"105,105"
	// NOTE: This needs to be a looping sound
	"wave"		"vehicles/socar4/3rdgear.wav"
}

"socar4_fourthgear_noshift"
{
	"channel"		"CHAN_STATIC"
	"volume"		"1.0"
	"soundlevel"	"SNDLVL_80dB"
	"pitch"		"105,105"
	// NOTE: This needs to be a looping sound
	"wave"		"vehicles/socar4/4thgear.wav"
}

"socar4_downshift_to_2nd"
{
	"channel"		"CHAN_STATIC"
	"volume"		"1.0"
	"soundlevel"	"SNDLVL_80dB"
	"pitch"		"90,105"
	//"wave"		"vehicles/atv_downshift_to_2nd_loop1.wav"
	"wave"		"vehicles/v8/4thgear.wav"
	//"wave"		"vehicles/socar4/idle.wav"
	//"wave"		"common/null.wav"
}

"socar4_downshift_to_1st"
{
	"channel"		"CHAN_STATIC"
	"volume"		"1.0"
	"soundlevel"	"SNDLVL_80dB"
	"pitch"		"90,105"
	//"wave"		"vehicles/atv_downshift_to_1st_loop1.wav"
	"wave"		"vehicles/socar4/4thgear.mp3"
	//"wave"		"vehicles/socar4/idle.wav"
	//"wave"		"common/null.wav"
}

"socar4_throttleoff_slowspeed"
{
	"channel"		"CHAN_STATIC"
	"volume"		"1.0"
	"soundlevel"	"SNDLVL_80dB"
	"pitch"		"90,105"
	"wave"		"vehicles/socar4/slowdwn.wav"
	//"wave"		"vehicles/socar4/idle.wav"
}

"socar4_throttleoff_fastspeed"
{
	"channel"		"CHAN_STATIC"
	"volume"		"1.0"
	"soundlevel"	"SNDLVL_80dB"
	"pitch"		"90,105"

	"wave"		"vehicles/socar4/fastdwn.wav"
}

"socar4_skid_lowfriction"
{
	"channel"		"CHAN_BODY"
	"volume"		"1.0"
	"soundlevel"	"SNDLVL_80dB"
	"pitch"		"90,110"
	//"wave"		"vehicles/atv_skid_lowfriction.wav"
	"wave"		"vehicles/v8/skid_lowfriction.wav"
}

"socar4_skid_normalfriction"
{
	"channel"		"CHAN_BODY"
	"volume"		"1.0"
	"soundlevel"	"SNDLVL_80dB"
	"pitch"		"90,110"
	//"wave"		"vehicles/atv_skid_normalfriction.wav"
	"wave"		"vehicles/v8/skid_normalfriction.wav"
}

"socar4_skid_highfriction"
{
	"channel"		"CHAN_BODY"
	"volume"		"1.0"
	"soundlevel"	"SNDLVL_80dB"
	"pitch"		"90,110"
	//"wave"		"vehicles/atv_skid_highfriction.wav"
	"wave"		"vehicles/v8/skid_highfriction.wav"
}

"socar4_impact_heavy"
{
	"channel"		"CHAN_STATIC"
	"volume"		"1.0"
	"soundlevel"	"SNDLVL_80dB"
	"pitch"		"95,110"
	"rndwave"
	{
		"wave"	"vehicles/v8/vehicle_impact_heavy1.wav"
		"wave"	"vehicles/v8/vehicle_impact_heavy2.wav"
		"wave"	"vehicles/v8/vehicle_impact_heavy3.wav"
		"wave"	"vehicles/v8/vehicle_impact_heavy4.wav"
	}
}

"socar4_impact_medium"
{
	"channel"		"CHAN_STATIC"
	"volume"		"1.0"
	"soundlevel"	"SNDLVL_80dB"
	"pitch"		"95,110"
	"rndwave"
	{
		"wave"	"vehicles/v8/vehicle_impact_medium1.wav"
		"wave"	"vehicles/v8/vehicle_impact_medium2.wav"
		"wave"	"vehicles/v8/vehicle_impact_medium3.wav"
		"wave"	"vehicles/v8/vehicle_impact_medium4.wav"
	}
}

"socar4_rollover"
{
	"channel"		"CHAN_STATIC"
	"volume"		"1.0"
	"soundlevel"	"SNDLVL_80dB"
	"pitch"		"95,110"
	"rndwave"
	{
		"wave"	"vehicles/v8/vehicle_rollover1.wav"
		"wave"	"vehicles/v8/vehicle_rollover2.wav"
	}
}


"socar4_turbo_on"
{
	"channel"		"CHAN_ITEM"
	"volume"		"1.0"
	"soundlevel"	"SNDLVL_80dB"
	"pitch"		"90,110"
	//"wave"		"vehicles/vehicle_turbo_loop3.wav"
	"wave"		"vehicles/socar4/turbo.mp3"
}

"socar4_turbo_off"
{
	"channel"		"CHAN_ITEM"
	"volume"		"1.0"
	"soundlevel"	"SNDLVL_80dB"
	"pitch"		"90,110"
	//"wave"		"vehicles/vehicle_turbo_off1.wav"
	"wave"		"vehicles/v8/v8_turbo_off.wav"
}

"socar4_start_in_water"
{
	"channel"		"CHAN_VOICE"
	"volume"		"1.0"
	"soundlevel"	"SNDLVL_80dB"
	"pitch"			"100"
	"wave"			"vehicles/jetski/jetski_no_gas_start.wav"
}

"socar4_stall_in_water"
{
	"channel"		"CHAN_VOICE"
	"volume"		"1.0"
	"soundlevel"	"SNDLVL_80dB"
	"pitch"			"100"
	"wave"			"vehicles/jetski/jetski_off.wav"
}


// ******************************
// socar5


"socar5_engine_idle"
{
	"channel"		"CHAN_STATIC"
	"volume"		"1.0"
	"soundlevel"	"SNDLVL_80dB"

	"wave"		"vehicles/socar5/idle.wav"
}

"socar5_engine_null"
{
	"channel"		"CHAN_STATIC"
	"volume"		"1.0"
	"soundlevel"	"SNDLVL_80dB"

	"wave"		"common/null.wav"
}

"socar5_engine_start"
{
	"channel"		"CHAN_STATIC"
	"volume"		"1.0"
	"soundlevel"	"SNDLVL_80dB"
	//"wave"		"vehicles/atv_start_loop1.wav"
	"wave"		"vehicles/socar5/start.mp3"
}

"socar5_engine_stop"
{
	"channel"		"CHAN_STATIC"
	"volume"		"1.0"
	"soundlevel"	"SNDLVL_80dB"

	//"wave"		"common/null.wav"
	"wave"		"vehicles/socar5/stop.mp3"
}

"socar5_rev"
{
	"channel"		"CHAN_STATIC"
	"volume"		"0.9"
	"soundlevel"	"SNDLVL_80dB"
	"pitch"		"98,105"
	"wave"		"vehicles/socar5/rev.wav"


}

"socar5_reverse"
{
	"channel"		"CHAN_STATIC"
	"volume"		"1.0"
	"soundlevel"	"SNDLVL_80dB"
	"pitch"			"100"
	"wave"			"vehicles/socar5/reverse.wav"
}


"socar5_firstgear"
{
	"channel"		"CHAN_STATIC"
	"volume"		"1.0"
	"soundlevel"	"SNDLVL_80dB"
	"pitch"		"20,200"
	//"wave"		"vehicles/v8/v8_firstgear_rev_loop1.wav"
	"wave"		"vehicles/socar5/1stgear.wav"
}

"socar5_secondgear"
{
	"channel"		"CHAN_STATIC"
	"volume"		"1.0"
	"soundlevel"	"SNDLVL_80dB"
	"pitch"		"90,105"
	//"wave"		"vehicles/atv_secondgear_to_fullthrottle_loop1.wav"
	//"wave"		"vehicles/v8/v8_secondgear_loop1.wav"
	"wave"		"vehicles/socar5/2ndgear.wav"
}

"socar5_thirdgear"
{
	"channel"		"CHAN_STATIC"
	"volume"		"1.0"
	"soundlevel"	"SNDLVL_80dB"
	"pitch"		"90,105"
	//"wave"		"vehicles/atv_thirdgear_to_fullthrottle_loop1.wav"
	//"wave"		"vehicles/v8/v8_secondgear_loop1.wav"
	"wave"		"vehicles/socar5/3rdgear.wav"
}

"socar5_fourthgear"
{
	"channel"		"CHAN_STATIC"
	"volume"		"1.0"
	"soundlevel"	"SNDLVL_80dB"
	"pitch"		"105,105"
	"wave"		"vehicles/socar5/4thgear.wav"
}

"socar5_firstgear_noshift"
{
	"channel"		"CHAN_STATIC"
	"volume"		"1.0"
	"soundlevel"	"SNDLVL_80dB"
	"pitch"		"105,105"
	// NOTE: This needs to be a looping sound
	"wave"		"vehicles/socar5/1stgear.wav"
}
"socar5_secondgear_noshift"
{
	"channel"		"CHAN_STATIC"
	"volume"		"1.0"
	"soundlevel"	"SNDLVL_80dB"
	"pitch"		"105,105"
	// NOTE: This needs to be a looping sound
	"wave"		"vehicles/socar5/1stgear.wav"
}
"socar5_thirdgear_noshift"
{
	"channel"		"CHAN_STATIC"
	"volume"		"1.0"
	"soundlevel"	"SNDLVL_80dB"
	"pitch"		"105,105"
	// NOTE: This needs to be a looping sound
	"wave"		"vehicles/socar5/1stgear.wav"
}

"socar5_fourthgear_noshift"
{
	"channel"		"CHAN_STATIC"
	"volume"		"1.0"
	"soundlevel"	"SNDLVL_80dB"
	"pitch"		"105,105"
	// NOTE: This needs to be a looping sound
	"wave"		"vehicles/socar5/1stgear.wav"
}

"socar5_downshift_to_2nd"
{
	"channel"		"CHAN_STATIC"
	"volume"		"1.0"
	"soundlevel"	"SNDLVL_80dB"
	"pitch"		"90,105"
	//"wave"		"vehicles/atv_downshift_to_2nd_loop1.wav"
	"wave"		"vehicles/v8/bottom.wav"
	//"wave"		"vehicles/socar5/idle.wav"
	//"wave"		"common/null.wav"
}

"socar5_downshift_to_1st"
{
	"channel"		"CHAN_STATIC"
	"volume"		"1.0"
	"soundlevel"	"SNDLVL_80dB"
	"pitch"		"90,105"
	//"wave"		"vehicles/atv_downshift_to_1st_loop1.wav"
	"wave"		"vehicles/socar5/bottom.wav"
	//"wave"		"vehicles/socar5/idle.wav"
	//"wave"		"common/null.wav"
}

"socar5_throttleoff_slowspeed"
{
	"channel"		"CHAN_STATIC"
	"volume"		"1.0"
	"soundlevel"	"SNDLVL_80dB"
	"pitch"		"90,105"
	"wave"		"vehicles/socar5/slowdwn.wav"
	//"wave"		"vehicles/socar5/idle.wav"
}

"socar5_throttleoff_fastspeed"
{
	"channel"		"CHAN_STATIC"
	"volume"		"1.0"
	"soundlevel"	"SNDLVL_80dB"
	"pitch"		"90,105"

	"wave"		"vehicles/socar5/fastdwn.wav"
}

"socar5_skid_lowfriction"
{
	"channel"		"CHAN_BODY"
	"volume"		"1.0"
	"soundlevel"	"SNDLVL_80dB"
	"pitch"		"90,110"
	//"wave"		"vehicles/atv_skid_lowfriction.wav"
	"wave"		"vehicles/v8/skid_lowfriction.wav"
}

"socar5_skid_normalfriction"
{
	"channel"		"CHAN_BODY"
	"volume"		"1.0"
	"soundlevel"	"SNDLVL_80dB"
	"pitch"		"90,110"
	//"wave"		"vehicles/atv_skid_normalfriction.wav"
	"wave"		"vehicles/v8/skid_normalfriction.wav"
}

"socar5_skid_highfriction"
{
	"channel"		"CHAN_BODY"
	"volume"		"1.0"
	"soundlevel"	"SNDLVL_80dB"
	"pitch"		"90,110"
	//"wave"		"vehicles/atv_skid_highfriction.wav"
	"wave"		"vehicles/v8/skid_highfriction.wav"
}

"socar5_impact_heavy"
{
	"channel"		"CHAN_STATIC"
	"volume"		"1.0"
	"soundlevel"	"SNDLVL_80dB"
	"pitch"		"95,110"
	"rndwave"
	{
		"wave"	"vehicles/v8/vehicle_impact_heavy1.wav"
		"wave"	"vehicles/v8/vehicle_impact_heavy2.wav"
		"wave"	"vehicles/v8/vehicle_impact_heavy3.wav"
		"wave"	"vehicles/v8/vehicle_impact_heavy4.wav"
	}
}

"socar5_impact_medium"
{
	"channel"		"CHAN_STATIC"
	"volume"		"1.0"
	"soundlevel"	"SNDLVL_80dB"
	"pitch"		"95,110"
	"rndwave"
	{
		"wave"	"vehicles/v8/vehicle_impact_medium1.wav"
		"wave"	"vehicles/v8/vehicle_impact_medium2.wav"
		"wave"	"vehicles/v8/vehicle_impact_medium3.wav"
		"wave"	"vehicles/v8/vehicle_impact_medium4.wav"
	}
}

"socar5_rollover"
{
	"channel"		"CHAN_STATIC"
	"volume"		"1.0"
	"soundlevel"	"SNDLVL_80dB"
	"pitch"		"95,110"
	"rndwave"
	{
		"wave"	"vehicles/v8/vehicle_rollover1.wav"
		"wave"	"vehicles/v8/vehicle_rollover2.wav"
	}
}


"socar5_turbo_on"
{
	"channel"		"CHAN_ITEM"
	"volume"		"1.0"
	"soundlevel"	"SNDLVL_80dB"
	"pitch"		"90,110"
	//"wave"		"vehicles/vehicle_turbo_loop3.wav"
	"wave"		"vehicles/socar5/turbo.mp3"
}

"socar5_turbo_off"
{
	"channel"		"CHAN_ITEM"
	"volume"		"1.0"
	"soundlevel"	"SNDLVL_80dB"
	"pitch"		"90,110"
	//"wave"		"vehicles/vehicle_turbo_off1.wav"
	"wave"		"vehicles/v8/v8_turbo_off.wav"
}

"socar5_start_in_water"
{
	"channel"		"CHAN_VOICE"
	"volume"		"1.0"
	"soundlevel"	"SNDLVL_80dB"
	"pitch"			"100"
	"wave"			"vehicles/jetski/jetski_no_gas_start.wav"
}

"socar5_stall_in_water"
{
	"channel"		"CHAN_VOICE"
	"volume"		"1.0"
	"soundlevel"	"SNDLVL_80dB"
	"pitch"			"100"
	"wave"			"vehicles/jetski/jetski_off.wav"
}

// ******************************
// truck


"truck_engine_idle"
{
	"channel"		"CHAN_STATIC"
	"volume"		"1.0"
	"soundlevel"	"SNDLVL_80dB"

	"wave"		"vehicles/truck/idle.wav"
}

"truck_engine_null"
{
	"channel"		"CHAN_STATIC"
	"volume"		"1.0"
	"soundlevel"	"SNDLVL_80dB"

	"wave"		"common/null.wav"
}

"truck_engine_start"
{
	"channel"		"CHAN_STATIC"
	"volume"		"1.0"
	"soundlevel"	"SNDLVL_80dB"
	//"wave"		"vehicles/atv_start_loop1.wav"
	"wave"		"vehicles/truck/start.mp3"
}

"truck_engine_stop"
{
	"channel"		"CHAN_STATIC"
	"volume"		"1.0"
	"soundlevel"	"SNDLVL_80dB"

	//"wave"		"common/null.wav"
	"wave"		"vehicles/truck/stop.mp3"
}

"truck_rev"
{
	"channel"		"CHAN_STATIC"
	"volume"		"0.9"
	"soundlevel"	"SNDLVL_80dB"
	"pitch"		"98,105"
	"wave"		"vehicles/truck/rev.wav"

//	"rndwave"
//	{
//		"wave"		"vehicles/truck/revving.wav"
//		"wave"		"vehicles/truck/revving.wav"
//	}
}

"truck_reverse"
{
	"channel"		"CHAN_STATIC"
	"volume"		"1.0"
	"soundlevel"	"SNDLVL_80dB"
	"pitch"			"100"
	"wave"			"vehicles/truck/reverse.wav"
}


"truck_firstgear"
{
	"channel"		"CHAN_STATIC"
	"volume"		"1.0"
	"soundlevel"	"SNDLVL_80dB"
	"pitch"		"20,200"
	//"wave"		"vehicles/v8/v8_firstgear_rev_loop1.wav"
	"wave"		"vehicles/truck/1stgear.wav"
}

"truck_secondgear"
{
	"channel"		"CHAN_STATIC"
	"volume"		"1.0"
	"soundlevel"	"SNDLVL_80dB"
	"pitch"		"90,105"
	//"wave"		"vehicles/atv_secondgear_to_fullthrottle_loop1.wav"
	//"wave"		"vehicles/v8/v8_secondgear_loop1.wav"
	"wave"		"vehicles/truck/2ndgear.wav"
}

"truck_thirdgear"
{
	"channel"		"CHAN_STATIC"
	"volume"		"1.0"
	"soundlevel"	"SNDLVL_80dB"
	"pitch"		"90,105"
	//"wave"		"vehicles/atv_thirdgear_to_fullthrottle_loop1.wav"
	//"wave"		"vehicles/v8/v8_secondgear_loop1.wav"
	"wave"		"vehicles/truck/2ndgear.wav"
}

"truck_fourthgear"
{
	"channel"		"CHAN_STATIC"
	"volume"		"1.0"
	"soundlevel"	"SNDLVL_80dB"
	"pitch"		"105,105"
	"wave"		"vehicles/truck/2ndgear.wav"
}

"truck_firstgear_noshift"
{
	"channel"		"CHAN_STATIC"
	"volume"		"1.0"
	"soundlevel"	"SNDLVL_80dB"
	"pitch"		"105,105"
	// NOTE: This needs to be a looping sound
	"wave"		"vehicles/truck/1stgear.wav"
}
"truck_secondgear_noshift"
{
	"channel"		"CHAN_STATIC"
	"volume"		"1.0"
	"soundlevel"	"SNDLVL_80dB"
	"pitch"		"105,105"
	// NOTE: This needs to be a looping sound
	"wave"		"vehicles/truck/2ndgear.wav"
}
"truck_thirdgear_noshift"
{
	"channel"		"CHAN_STATIC"
	"volume"		"1.0"
	"soundlevel"	"SNDLVL_80dB"
	"pitch"		"105,105"
	// NOTE: This needs to be a looping sound
	"wave"		"vehicles/truck/2ndgear.wav"
}

"truck_fourthgear_noshift"
{
	"channel"		"CHAN_STATIC"
	"volume"		"1.0"
	"soundlevel"	"SNDLVL_80dB"
	"pitch"		"105,105"
	// NOTE: This needs to be a looping sound
	"wave"		"vehicles/truck/2ndgear.wav"
}

"truck_downshift_to_2nd"
{
	"channel"		"CHAN_STATIC"
	"volume"		"1.0"
	"soundlevel"	"SNDLVL_80dB"
	"pitch"		"90,105"
	//"wave"		"vehicles/atv_downshift_to_2nd_loop1.wav"
	"wave"		"vehicles/v8/slowdown.wav"
	//"wave"		"vehicles/truck/idle.wav"
	//"wave"		"common/null.wav"
}

"truck_downshift_to_1st"
{
	"channel"		"CHAN_STATIC"
	"volume"		"1.0"
	"soundlevel"	"SNDLVL_80dB"
	"pitch"		"90,105"
	//"wave"		"vehicles/atv_downshift_to_1st_loop1.wav"
	"wave"		"vehicles/truck/slowdown.wav"
	//"wave"		"vehicles/truck/idle.wav"
	//"wave"		"common/null.wav"
}

"truck_throttleoff_slowspeed"
{
	"channel"		"CHAN_STATIC"
	"volume"		"1.0"
	"soundlevel"	"SNDLVL_80dB"
	"pitch"		"90,105"
	"wave"		"vehicles/truck/slowdown.wav"
	//"wave"		"vehicles/truck/idle.wav"
}

"truck_throttleoff_fastspeed"
{
	"channel"		"CHAN_STATIC"
	"volume"		"1.0"
	"soundlevel"	"SNDLVL_80dB"
	"pitch"		"90,105"

	"wave"		"vehicles/truck/slowdown.wav"
}

"truck_skid_lowfriction"
{
	"channel"		"CHAN_BODY"
	"volume"		"1.0"
	"soundlevel"	"SNDLVL_80dB"
	"pitch"		"90,110"
	//"wave"		"vehicles/atv_skid_lowfriction.wav"
	"wave"		"vehicles/v8/skid_lowfriction.wav"
}

"truck_skid_normalfriction"
{
	"channel"		"CHAN_BODY"
	"volume"		"1.0"
	"soundlevel"	"SNDLVL_80dB"
	"pitch"		"90,110"
	//"wave"		"vehicles/atv_skid_normalfriction.wav"
	"wave"		"vehicles/v8/skid_normalfriction.wav"
}

"truck_skid_highfriction"
{
	"channel"		"CHAN_BODY"
	"volume"		"1.0"
	"soundlevel"	"SNDLVL_80dB"
	"pitch"		"90,110"
	//"wave"		"vehicles/atv_skid_highfriction.wav"
	"wave"		"vehicles/v8/skid_highfriction.wav"
}

"truck_impact_heavy"
{
	"channel"		"CHAN_STATIC"
	"volume"		"1.0"
	"soundlevel"	"SNDLVL_80dB"
	"pitch"		"95,110"
	"rndwave"
	{
		"wave"	"vehicles/v8/vehicle_impact_heavy1.wav"
		"wave"	"vehicles/v8/vehicle_impact_heavy2.wav"
		"wave"	"vehicles/v8/vehicle_impact_heavy3.wav"
		"wave"	"vehicles/v8/vehicle_impact_heavy4.wav"
	}
}

"truck_impact_medium"
{
	"channel"		"CHAN_STATIC"
	"volume"		"1.0"
	"soundlevel"	"SNDLVL_80dB"
	"pitch"		"95,110"
	"rndwave"
	{
		"wave"	"vehicles/v8/vehicle_impact_medium1.wav"
		"wave"	"vehicles/v8/vehicle_impact_medium2.wav"
		"wave"	"vehicles/v8/vehicle_impact_medium3.wav"
		"wave"	"vehicles/v8/vehicle_impact_medium4.wav"
	}
}

"truck_rollover"
{
	"channel"		"CHAN_STATIC"
	"volume"		"1.0"
	"soundlevel"	"SNDLVL_80dB"
	"pitch"		"95,110"
	"rndwave"
	{
		"wave"	"vehicles/v8/vehicle_rollover1.wav"
		"wave"	"vehicles/v8/vehicle_rollover2.wav"
	}
}


"truck_turbo_on"
{
	"channel"		"CHAN_ITEM"
	"volume"		"1.0"
	"soundlevel"	"SNDLVL_80dB"
	"pitch"		"90,110"
	//"wave"		"vehicles/vehicle_turbo_loop3.wav"
	"wave"		"vehicles/truck/turbo.mp3"
}

"truck_turbo_off"
{
	"channel"		"CHAN_ITEM"
	"volume"		"1.0"
	"soundlevel"	"SNDLVL_80dB"
	"pitch"		"90,110"
	//"wave"		"vehicles/vehicle_turbo_off1.wav"
	"wave"		"vehicles/v8/v8_turbo_off.wav"
}

"truck_start_in_water"
{
	"channel"		"CHAN_VOICE"
	"volume"		"1.0"
	"soundlevel"	"SNDLVL_80dB"
	"pitch"			"100"
	"wave"			"vehicles/jetski/jetski_no_gas_start.wav"
}

"truck_stall_in_water"
{
	"channel"		"CHAN_VOICE"
	"volume"		"1.0"
	"soundlevel"	"SNDLVL_80dB"
	"pitch"			"100"
	"wave"			"vehicles/jetski/jetski_off.wav"
}
// Cannonfodder's MECH

"MECH_engine_slow"
{
	"channel"		"CHAN_STATIC"
	"volume"		"1.0"
	"soundlevel"	"SNDLVL_80dB"
	"pitch"		"90,105"
	"wave"		"vehicles/cf_mech_medium.wav"
}


"MECH_engine_medium"
{
	"channel"		"CHAN_STATIC"
	"volume"		"1.0"
	"soundlevel"	"SNDLVL_80dB"
	"pitch"		"90,105"
	"wave"		"vehicles/cf_mech_fast.wav"
}

"MECH_engine_fast"
{
	"channel"		"CHAN_STATIC"
	"volume"		"1.0"
	"soundlevel"	"SNDLVL_80dB"
	"pitch"		"90,105"
	"wave"		"vehicles/cf_mech_fast.wav"
}

"MECH_engine_idle"
{
	"channel"		"CHAN_STATIC"
	"volume"		"1.0"
	"soundlevel"	"SNDLVL_80dB"
	"pitch"		"90,105"
	"wave"		"vehicles/cf_mech_idle.wav"
}

// ******************************
// moped


"moped_engine_idle"
{
	"channel"		"CHAN_STATIC"
	"volume"		"1.0"
	"soundlevel"	"SNDLVL_80dB"

	"wave"		"vehicles/moped/idle.wav"
}

"moped_engine_null"
{
	"channel"		"CHAN_STATIC"
	"volume"		"1.0"
	"soundlevel"	"SNDLVL_80dB"

	"wave"		"common/null.wav"
}

"moped_engine_start"
{
	"channel"		"CHAN_STATIC"
	"volume"		"1.0"
	"soundlevel"	"SNDLVL_80dB"
	//"wave"		"vehicles/atv_start_loop1.wav"
	"wave"		"vehicles/moped/start.wav"
}

"moped_engine_stop"
{
	"channel"		"CHAN_STATIC"
	"volume"		"1.0"
	"soundlevel"	"SNDLVL_80dB"

	//"wave"		"common/null.wav"
	"wave"		"vehicles/moped/stop.wav"
}

"moped_rev"
{
	"channel"		"CHAN_STATIC"
	"volume"		"0.9"
	"soundlevel"	"SNDLVL_80dB"
	"pitch"		"98,105"
	"wave"		"vehicles/moped/rev.wav"

//	"rndwave"
//	{
//		"wave"		"vehicles/moped/revving.wav"
//		"wave"		"vehicles/moped/revving.wav"
//	}
}

"moped_reverse"
{
	"channel"		"CHAN_STATIC"
	"volume"		"1.0"
	"soundlevel"	"SNDLVL_80dB"
	"pitch"			"100"
	"wave"			"vehicles/moped/1stgear.wav"
}


"moped_firstgear"
{
	"channel"		"CHAN_STATIC"
	"volume"		"1.0"
	"soundlevel"	"SNDLVL_80dB"
	"pitch"		"100"
	//"wave"		"vehicles/v8/v8_firstgear_rev_loop1.wav"
	"wave"		"vehicles/moped/1stgear.wav"
}

"moped_secondgear"
{
	"channel"		"CHAN_STATIC"
	"volume"		"1.0"
	"soundlevel"	"SNDLVL_80dB"
	"pitch"		"90,105"
	//"wave"		"vehicles/atv_secondgear_to_fullthrottle_loop1.wav"
	//"wave"		"vehicles/v8/v8_secondgear_loop1.wav"
	"wave"		"vehicles/moped/2ndgear.wav"
}

"moped_thirdgear"
{
	"channel"		"CHAN_STATIC"
	"volume"		"1.0"
	"soundlevel"	"SNDLVL_80dB"
	"pitch"		"90,105"
	//"wave"		"vehicles/atv_thirdgear_to_fullthrottle_loop1.wav"
	//"wave"		"vehicles/v8/v8_secondgear_loop1.wav"
	"wave"		"vehicles/moped/3rdgear.wav"
}

"moped_fourthgear"
{
	"channel"		"CHAN_STATIC"
	"volume"		"1.0"
	"soundlevel"	"SNDLVL_80dB"
	"pitch"		"105,105"
	"wave"		"vehicles/moped/4thgear.wav"
}

"moped_firstgear_noshift"
{
	"channel"		"CHAN_STATIC"
	"volume"		"1.0"
	"soundlevel"	"SNDLVL_80dB"
	"pitch"		"105,105"
	// NOTE: This needs to be a looping sound
	"wave"		"vehicles/moped/1stgear.wav"
}
"moped_secondgear_noshift"
{
	"channel"		"CHAN_STATIC"
	"volume"		"1.0"
	"soundlevel"	"SNDLVL_80dB"
	"pitch"		"105,105"
	// NOTE: This needs to be a looping sound
	"wave"		"vehicles/moped/1stgear.wav"
}
"moped_thirdgear_noshift"
{
	"channel"		"CHAN_STATIC"
	"volume"		"1.0"
	"soundlevel"	"SNDLVL_80dB"
	"pitch"		"105,105"
	// NOTE: This needs to be a looping sound
	"wave"		"vehicles/moped/1stgear.wav"
}

"moped_fourthgear_noshift"
{
	"channel"		"CHAN_STATIC"
	"volume"		"1.0"
	"soundlevel"	"SNDLVL_80dB"
	"pitch"		"105,105"
	// NOTE: This needs to be a looping sound
	"wave"		"vehicles/moped/4thgear.wav"
}

"moped_downshift_to_2nd"
{
	"channel"		"CHAN_STATIC"
	"volume"		"1.0"
	"soundlevel"	"SNDLVL_80dB"
	"pitch"		"90,105"
	//"wave"		"vehicles/atv_downshift_to_2nd_loop1.wav"
	"wave"		"vehicles/v8/bottom.wav"
	//"wave"		"vehicles/moped/idle.wav"
	//"wave"		"common/null.wav"
}

"moped_downshift_to_1st"
{
	"channel"		"CHAN_STATIC"
	"volume"		"1.0"
	"soundlevel"	"SNDLVL_80dB"
	"pitch"		"90,105"
	//"wave"		"vehicles/atv_downshift_to_1st_loop1.wav"
	"wave"		"vehicles/moped/bottom.wav"
	//"wave"		"vehicles/moped/idle.wav"
	//"wave"		"common/null.wav"
}

"moped_throttleoff_slowspeed"
{
	"channel"		"CHAN_STATIC"
	"volume"		"1.0"
	"soundlevel"	"SNDLVL_80dB"
	"pitch"		"90,105"
	"wave"		"vehicles/moped/slowdwn.wav"
	//"wave"		"vehicles/moped/idle.wav"
}

"moped_throttleoff_fastspeed"
{
	"channel"		"CHAN_STATIC"
	"volume"		"1.0"
	"soundlevel"	"SNDLVL_80dB"
	"pitch"		"90,105"

	"wave"		"vehicles/moped/fastdwn.wav"
}

"moped_skid_lowfriction"
{
	"channel"		"CHAN_BODY"
	"volume"		"1.0"
	"soundlevel"	"SNDLVL_80dB"
	"pitch"		"90,110"
	//"wave"		"vehicles/atv_skid_lowfriction.wav"
	"wave"		"vehicles/v8/skid_lowfriction.wav"
}

"moped_skid_normalfriction"
{
	"channel"		"CHAN_BODY"
	"volume"		"1.0"
	"soundlevel"	"SNDLVL_80dB"
	"pitch"		"90,110"
	//"wave"		"vehicles/atv_skid_normalfriction.wav"
	"wave"		"vehicles/v8/skid_normalfriction.wav"
}

"moped_skid_highfriction"
{
	"channel"		"CHAN_BODY"
	"volume"		"1.0"
	"soundlevel"	"SNDLVL_80dB"
	"pitch"		"90,110"
	//"wave"		"vehicles/atv_skid_highfriction.wav"
	"wave"		"vehicles/v8/skid_highfriction.wav"
}

"moped_impact_heavy"
{
	"channel"		"CHAN_STATIC"
	"volume"		"1.0"
	"soundlevel"	"SNDLVL_80dB"
	"pitch"		"95,110"
	"rndwave"
	{
		"wave"	"vehicles/v8/vehicle_impact_heavy1.wav"
		"wave"	"vehicles/v8/vehicle_impact_heavy2.wav"
		"wave"	"vehicles/v8/vehicle_impact_heavy3.wav"
		"wave"	"vehicles/v8/vehicle_impact_heavy4.wav"
	}
}

"moped_impact_medium"
{
	"channel"		"CHAN_STATIC"
	"volume"		"1.0"
	"soundlevel"	"SNDLVL_80dB"
	"pitch"		"95,110"
	"rndwave"
	{
		"wave"	"vehicles/v8/vehicle_impact_medium1.wav"
		"wave"	"vehicles/v8/vehicle_impact_medium2.wav"
		"wave"	"vehicles/v8/vehicle_impact_medium3.wav"
		"wave"	"vehicles/v8/vehicle_impact_medium4.wav"
	}
}

"moped_rollover"
{
	"channel"		"CHAN_STATIC"
	"volume"		"1.0"
	"soundlevel"	"SNDLVL_80dB"
	"pitch"		"95,110"
	"rndwave"
	{
		"wave"	"vehicles/v8/vehicle_rollover1.wav"
		"wave"	"vehicles/v8/vehicle_rollover2.wav"
	}
}


"moped_turbo_on"
{
	"channel"		"CHAN_ITEM"
	"volume"		"1.0"
	"soundlevel"	"SNDLVL_80dB"
	"pitch"		"90,110"
	//"wave"		"vehicles/vehicle_turbo_loop3.wav"
	"wave"		"vehicles/moped/turbo.wav"
}

"moped_turbo_off"
{
	"channel"		"CHAN_ITEM"
	"volume"		"1.0"
	"soundlevel"	"SNDLVL_80dB"
	"pitch"		"90,110"
	//"wave"		"vehicles/vehicle_turbo_off1.wav"
	"wave"		"vehicles/v8/v8_turbo_off.wav"
}

"moped_start_in_water"
{
	"channel"		"CHAN_VOICE"
	"volume"		"1.0"
	"soundlevel"	"SNDLVL_80dB"
	"pitch"			"100"
	"wave"			"vehicles/jetski/jetski_no_gas_start.wav"
}

"moped_stall_in_water"
{
	"channel"		"CHAN_VOICE"
	"volume"		"1.0"
	"soundlevel"	"SNDLVL_80dB"
	"pitch"			"100"
	"wave"			"vehicles/jetski/jetski_off.wav"
}

// ******************************
// mini


"mini_engine_idle"
{
	"channel"		"CHAN_STATIC"
	"volume"		"1.0"
	"soundlevel"	"SNDLVL_80dB"

	"wave"		"vehicles/mini/idle.wav"
}

"mini_engine_null"
{
	"channel"		"CHAN_STATIC"
	"volume"		"1.0"
	"soundlevel"	"SNDLVL_80dB"

	"wave"		"common/null.wav"
}

"mini_engine_start"
{
	"channel"		"CHAN_STATIC"
	"volume"		"1.0"
	"soundlevel"	"SNDLVL_80dB"
	//"wave"		"vehicles/atv_start_loop1.wav"
	"wave"		"vehicles/mini/start.wav"
}

"mini_engine_stop"
{
	"channel"		"CHAN_STATIC"
	"volume"		"1.0"
	"soundlevel"	"SNDLVL_80dB"

	//"wave"		"common/null.wav"
	"wave"		"vehicles/mini/stop.wav"
}

"mini_rev"
{
	"channel"		"CHAN_STATIC"
	"volume"		"0.9"
	"soundlevel"	"SNDLVL_80dB"
	"pitch"		"98,105"
	"wave"		"vehicles/mini/rev.wav"

//	"rndwave"
//	{
//		"wave"		"vehicles/mini/revving.wav"
//		"wave"		"vehicles/mini/revving.wav"
//	}
}

"mini_reverse"
{
	"channel"		"CHAN_STATIC"
	"volume"		"1.0"
	"soundlevel"	"SNDLVL_80dB"
	"pitch"			"100"
	"wave"			"vehicles/mini/1stgear.wav"
}


"mini_firstgear"
{
	"channel"		"CHAN_STATIC"
	"volume"		"1.0"
	"soundlevel"	"SNDLVL_80dB"
	"pitch"		"100"
	//"wave"		"vehicles/v8/v8_firstgear_rev_loop1.wav"
	"wave"		"vehicles/mini/1stgear.wav"
}

"mini_secondgear"
{
	"channel"		"CHAN_STATIC"
	"volume"		"1.0"
	"soundlevel"	"SNDLVL_80dB"
	"pitch"		"90,105"
	//"wave"		"vehicles/atv_secondgear_to_fullthrottle_loop1.wav"
	//"wave"		"vehicles/v8/v8_secondgear_loop1.wav"
	"wave"		"vehicles/mini/2ndgear.wav"
}

"mini_thirdgear"
{
	"channel"		"CHAN_STATIC"
	"volume"		"1.0"
	"soundlevel"	"SNDLVL_80dB"
	"pitch"		"90,105"
	//"wave"		"vehicles/atv_thirdgear_to_fullthrottle_loop1.wav"
	//"wave"		"vehicles/v8/v8_secondgear_loop1.wav"
	"wave"		"vehicles/mini/3rdgear.wav"
}

"mini_fourthgear"
{
	"channel"		"CHAN_STATIC"
	"volume"		"1.0"
	"soundlevel"	"SNDLVL_80dB"
	"pitch"		"105,105"
	"wave"		"vehicles/mini/4thgear.wav"
}

"mini_firstgear_noshift"
{
	"channel"		"CHAN_STATIC"
	"volume"		"1.0"
	"soundlevel"	"SNDLVL_80dB"
	"pitch"		"105,105"
	// NOTE: This needs to be a looping sound
	"wave"		"vehicles/mini/1stgear.wav"
}
"mini_secondgear_noshift"
{
	"channel"		"CHAN_STATIC"
	"volume"		"1.0"
	"soundlevel"	"SNDLVL_80dB"
	"pitch"		"105,105"
	// NOTE: This needs to be a looping sound
	"wave"		"vehicles/mini/1stgear.wav"
}
"mini_thirdgear_noshift"
{
	"channel"		"CHAN_STATIC"
	"volume"		"1.0"
	"soundlevel"	"SNDLVL_80dB"
	"pitch"		"105,105"
	// NOTE: This needs to be a looping sound
	"wave"		"vehicles/mini/1stgear.wav"
}

"mini_fourthgear_noshift"
{
	"channel"		"CHAN_STATIC"
	"volume"		"1.0"
	"soundlevel"	"SNDLVL_80dB"
	"pitch"		"105,105"
	// NOTE: This needs to be a looping sound
	"wave"		"vehicles/mini/4thgear.wav"
}

"mini_downshift_to_2nd"
{
	"channel"		"CHAN_STATIC"
	"volume"		"1.0"
	"soundlevel"	"SNDLVL_80dB"
	"pitch"		"90,105"
	//"wave"		"vehicles/atv_downshift_to_2nd_loop1.wav"
	"wave"		"vehicles/v8/bottom.wav"
	//"wave"		"vehicles/mini/idle.wav"
	//"wave"		"common/null.wav"
}

"mini_downshift_to_1st"
{
	"channel"		"CHAN_STATIC"
	"volume"		"1.0"
	"soundlevel"	"SNDLVL_80dB"
	"pitch"		"90,105"
	//"wave"		"vehicles/atv_downshift_to_1st_loop1.wav"
	"wave"		"vehicles/mini/bottom.wav"
	//"wave"		"vehicles/mini/idle.wav"
	//"wave"		"common/null.wav"
}

"mini_throttleoff_slowspeed"
{
	"channel"		"CHAN_STATIC"
	"volume"		"1.0"
	"soundlevel"	"SNDLVL_80dB"
	"pitch"		"90,105"
	"wave"		"vehicles/mini/slowdwn.wav"
	//"wave"		"vehicles/mini/idle.wav"
}

"mini_throttleoff_fastspeed"
{
	"channel"		"CHAN_STATIC"
	"volume"		"1.0"
	"soundlevel"	"SNDLVL_80dB"
	"pitch"		"90,105"

	"wave"		"vehicles/mini/fastdwn.wav"
}

"mini_skid_lowfriction"
{
	"channel"		"CHAN_BODY"
	"volume"		"1.0"
	"soundlevel"	"SNDLVL_80dB"
	"pitch"		"90,110"
	//"wave"		"vehicles/atv_skid_lowfriction.wav"
	"wave"		"vehicles/v8/skid_lowfriction.wav"
}

"mini_skid_normalfriction"
{
	"channel"		"CHAN_BODY"
	"volume"		"1.0"
	"soundlevel"	"SNDLVL_80dB"
	"pitch"		"90,110"
	//"wave"		"vehicles/atv_skid_normalfriction.wav"
	"wave"		"vehicles/v8/skid_normalfriction.wav"
}

"mini_skid_highfriction"
{
	"channel"		"CHAN_BODY"
	"volume"		"1.0"
	"soundlevel"	"SNDLVL_80dB"
	"pitch"		"90,110"
	//"wave"		"vehicles/atv_skid_highfriction.wav"
	"wave"		"vehicles/v8/skid_highfriction.wav"
}

"mini_impact_heavy"
{
	"channel"		"CHAN_STATIC"
	"volume"		"1.0"
	"soundlevel"	"SNDLVL_80dB"
	"pitch"		"95,110"
	"rndwave"
	{
		"wave"	"vehicles/v8/vehicle_impact_heavy1.wav"
		"wave"	"vehicles/v8/vehicle_impact_heavy2.wav"
		"wave"	"vehicles/v8/vehicle_impact_heavy3.wav"
		"wave"	"vehicles/v8/vehicle_impact_heavy4.wav"
	}
}

"mini_impact_medium"
{
	"channel"		"CHAN_STATIC"
	"volume"		"1.0"
	"soundlevel"	"SNDLVL_80dB"
	"pitch"		"95,110"
	"rndwave"
	{
		"wave"	"vehicles/v8/vehicle_impact_medium1.wav"
		"wave"	"vehicles/v8/vehicle_impact_medium2.wav"
		"wave"	"vehicles/v8/vehicle_impact_medium3.wav"
		"wave"	"vehicles/v8/vehicle_impact_medium4.wav"
	}
}

"mini_rollover"
{
	"channel"		"CHAN_STATIC"
	"volume"		"1.0"
	"soundlevel"	"SNDLVL_80dB"
	"pitch"		"95,110"
	"rndwave"
	{
		"wave"	"vehicles/v8/vehicle_rollover1.wav"
		"wave"	"vehicles/v8/vehicle_rollover2.wav"
	}
}


"mini_turbo_on"
{
	"channel"		"CHAN_ITEM"
	"volume"		"1.0"
	"soundlevel"	"SNDLVL_80dB"
	"pitch"		"90,110"
	//"wave"		"vehicles/vehicle_turbo_loop3.wav"
	"wave"		"vehicles/mini/turbo.wav"
}

"mini_turbo_off"
{
	"channel"		"CHAN_ITEM"
	"volume"		"1.0"
	"soundlevel"	"SNDLVL_80dB"
	"pitch"		"90,110"
	//"wave"		"vehicles/vehicle_turbo_off1.wav"
	"wave"		"vehicles/v8/v8_turbo_off.wav"
}

"mini_start_in_water"
{
	"channel"		"CHAN_VOICE"
	"volume"		"1.0"
	"soundlevel"	"SNDLVL_80dB"
	"pitch"			"100"
	"wave"			"vehicles/jetski/jetski_no_gas_start.wav"
}

"mini_stall_in_water"
{
	"channel"		"CHAN_VOICE"
	"volume"		"1.0"
	"soundlevel"	"SNDLVL_80dB"
	"pitch"			"100"
	"wave"			"vehicles/jetski/jetski_off.wav"
}

// ******************************
// JEEP


"v82_engine_idle"
{
	"channel"		"CHAN_STATIC"
	"volume"		"1.0"
	"soundlevel"	"SNDLVL_80dB"

	//"wave"		"vehicles/atv_idle_loop1.wav"
	"wave"		"vehicles/v82/v8_idle_loop1.wav"
}

"v82_engine_null"
{
	"channel"		"CHAN_STATIC"
	"volume"		"1.0"
	"soundlevel"	"SNDLVL_80dB"

	"wave"		"common/null.wav"
}

"v82_engine_start"
{
	"channel"		"CHAN_STATIC"
	"volume"		"1.0"
	"soundlevel"	"SNDLVL_80dB"
	//"wave"		"vehicles/atv_start_loop1.wav"
	"wave"		"vehicles/v82/v8_start_loop1.wav"
}

"v82_engine_stop"
{
	"channel"		"CHAN_STATIC"
	"volume"		"1.0"
	"soundlevel"	"SNDLVL_80dB"

	//"wave"		"common/null.wav"
	"wave"		"vehicles/v82/v8_stop1.wav"
}

"v82_rev"
{
	"channel"		"CHAN_STATIC"
	"volume"		"0.9"
	"soundlevel"	"SNDLVL_80dB"
	"pitch"		"98,105"
	"wave"		"vehicles/v82/v8_rev_short_loop1.wav"

//	"rndwave"
//	{
//		"wave"		"vehicles/v82/v8_rev_short_loop1.wav"
//		"wave"		"vehicles/v82/v8_rev_short_loop6.wav"
//	}
}

"v82_reverse"
{
	"channel"		"CHAN_STATIC"
	"volume"		"1.0"
	"soundlevel"	"SNDLVL_80dB"
	"pitch"			"100"
	"wave"			"vehicles/v82/v8_firstgear_rev_loop1.wav"
}


"v82_firstgear"
{
	"channel"		"CHAN_STATIC"
	"volume"		"1.0"
	"soundlevel"	"SNDLVL_80dB"
	"pitch"		"100"
	//"wave"		"vehicles/v82/v8_firstgear_rev_loop1.wav"
	"wave"		"vehicles/v82/first.wav"
}

"v82_secondgear"
{
	"channel"		"CHAN_STATIC"
	"volume"		"1.0"
	"soundlevel"	"SNDLVL_80dB"
	"pitch"		"90,105"
	//"wave"		"vehicles/atv_secondgear_to_fullthrottle_loop1.wav"
	//"wave"		"vehicles/v82/v8_secondgear_loop1.wav"
	"wave"		"vehicles/v82/second.wav"
}

"v82_thirdgear"
{
	"channel"		"CHAN_STATIC"
	"volume"		"1.0"
	"soundlevel"	"SNDLVL_80dB"
	"pitch"		"90,105"
	//"wave"		"vehicles/atv_thirdgear_to_fullthrottle_loop1.wav"
	//"wave"		"vehicles/v82/v8_secondgear_loop1.wav"
	"wave"		"vehicles/v82/third.wav"
}

"v82_fourthgear"
{
	"channel"		"CHAN_STATIC"
	"volume"		"1.0"
	"soundlevel"	"SNDLVL_80dB"
	"pitch"		"105,105"
	"wave"		"vehicles/v82/fourth_cruise_loop2.wav"
}

"v82_firstgear_noshift"
{
	"channel"		"CHAN_STATIC"
	"volume"		"1.0"
	"soundlevel"	"SNDLVL_80dB"
	"pitch"		"105,105"
	// NOTE: This needs to be a looping sound
	"wave"		"vehicles/v82/first.wav"
}
"ATV_secondgear_noshift"
{
	"channel"		"CHAN_STATIC"
	"volume"		"1.0"
	"soundlevel"	"SNDLVL_80dB"
	"pitch"		"105,105"
	// NOTE: This needs to be a looping sound
	"wave"		"vehicles/v82/first.wav"
}
"v82_thirdgear_noshift"
{
	"channel"		"CHAN_STATIC"
	"volume"		"1.0"
	"soundlevel"	"SNDLVL_80dB"
	"pitch"		"105,105"
	// NOTE: This needs to be a looping sound
	"wave"		"vehicles/v82/first.wav"
}

"v82_fourthgear_noshift"
{
	"channel"		"CHAN_STATIC"
	"volume"		"1.0"
	"soundlevel"	"SNDLVL_80dB"
	"pitch"		"105,105"
	// NOTE: This needs to be a looping sound
	"wave"		"vehicles/v82/fourth_cruise_loop2.wav"
}

"v82_downshift_to_2nd"
{
	"channel"		"CHAN_STATIC"
	"volume"		"1.0"
	"soundlevel"	"SNDLVL_80dB"
	"pitch"		"90,105"
	//"wave"		"vehicles/atv_downshift_to_2nd_loop1.wav"
	"wave"		"vehicles/v82/first_rev.wav"
	//"wave"		"vehicles/v82/downshift.wav"
	//"wave"		"common/null.wav"
}

"v82_downshift_to_1st"
{
	"channel"		"CHAN_STATIC"
	"volume"		"1.0"
	"soundlevel"	"SNDLVL_80dB"
	"pitch"		"90,105"
	//"wave"		"vehicles/atv_downshift_to_1st_loop1.wav"
	"wave"		"vehicles/v82/first_rev.wav"
	//"wave"		"vehicles/v82/downshift.wav"
	//"wave"		"common/null.wav"
}

"v82_throttleoff_slowspeed"
{
	"channel"		"CHAN_STATIC"
	"volume"		"1.0"
	"soundlevel"	"SNDLVL_80dB"
	"pitch"		"90,105"
	"wave"		"vehicles/v82/v8_throttle_off_slow_loop2.wav"
	//"wave"		"vehicles/v82/v8_idle_loop1.wav"
}

"v82_throttleoff_fastspeed"
{
	"channel"		"CHAN_STATIC"
	"volume"		"1.0"
	"soundlevel"	"SNDLVL_80dB"
	"pitch"		"90,105"
	//"wave"		"vehicles/atv_throttleoff_loop1.wav"
	"wave"		"vehicles/v82/v8_throttle_off_fast_loop1.wav"
	//"wave"		"common/null.wav"
}

"v82_skid_lowfriction"
{
	"channel"		"CHAN_BODY"
	"volume"		"1.0"
	"soundlevel"	"SNDLVL_80dB"
	"pitch"		"90,110"
	//"wave"		"vehicles/atv_skid_lowfriction.wav"
	"wave"		"vehicles/v82/skid_lowfriction.wav"
}

"v82_skid_normalfriction"
{
	"channel"		"CHAN_BODY"
	"volume"		"1.0"
	"soundlevel"	"SNDLVL_80dB"
	"pitch"		"90,110"
	//"wave"		"vehicles/atv_skid_normalfriction.wav"
	"wave"		"vehicles/v82/skid_normalfriction.wav"
}

"v82_skid_highfriction"
{
	"channel"		"CHAN_BODY"
	"volume"		"1.0"
	"soundlevel"	"SNDLVL_80dB"
	"pitch"		"90,110"
	//"wave"		"vehicles/atv_skid_highfriction.wav"
	"wave"		"vehicles/v82/skid_highfriction.wav"
}

"v82_impact_heavy"
{
	"channel"		"CHAN_STATIC"
	"volume"		"1.0"
	"soundlevel"	"SNDLVL_80dB"
	"pitch"		"95,110"
	"rndwave"
	{
		"wave"	"vehicles/v82/vehicle_impact_heavy1.wav"
		"wave"	"vehicles/v82/vehicle_impact_heavy2.wav"
		"wave"	"vehicles/v82/vehicle_impact_heavy3.wav"
		"wave"	"vehicles/v82/vehicle_impact_heavy4.wav"
	}
}

"v82_impact_medium"
{
	"channel"		"CHAN_STATIC"
	"volume"		"1.0"
	"soundlevel"	"SNDLVL_80dB"
	"pitch"		"95,110"
	"rndwave"
	{
		"wave"	"vehicles/v82/vehicle_impact_medium1.wav"
		"wave"	"vehicles/v82/vehicle_impact_medium2.wav"
		"wave"	"vehicles/v82/vehicle_impact_medium3.wav"
		"wave"	"vehicles/v82/vehicle_impact_medium4.wav"
	}
}

"v82_rollover"
{
	"channel"		"CHAN_STATIC"
	"volume"		"1.0"
	"soundlevel"	"SNDLVL_80dB"
	"pitch"		"95,110"
	"rndwave"
	{
		"wave"	"vehicles/v82/vehicle_rollover1.wav"
		"wave"	"vehicles/v82/vehicle_rollover2.wav"
	}
}


"v82_turbo_on"
{
	"channel"		"CHAN_ITEM"
	"volume"		"1.0"
	"soundlevel"	"SNDLVL_80dB"
	"pitch"		"90,110"
	//"wave"		"vehicles/vehicle_turbo_loop3.wav"
	"wave"		"vehicles/v82/v8_turbo_on_loop1.wav"
}

"v82_turbo_off"
{
	"channel"		"CHAN_ITEM"
	"volume"		"1.0"
	"soundlevel"	"SNDLVL_80dB"
	"pitch"		"90,110"
	//"wave"		"vehicles/vehicle_turbo_off1.wav"
	"wave"		"vehicles/v82/v8_turbo_off.wav"
}

"v82_start_in_water"
{
	"channel"		"CHAN_VOICE"
	"volume"		"1.0"
	"soundlevel"	"SNDLVL_80dB"
	"pitch"			"100"
	"wave"			"vehicles/jetski/jetski_no_gas_start.wav"
}

"v82_stall_in_water"
{
	"channel"		"CHAN_VOICE"
	"volume"		"1.0"
	"soundlevel"	"SNDLVL_80dB"
	"pitch"			"100"
	"wave"			"vehicles/jetski/jetski_off.wav"
}
