"VertexLitGeneric"
{
	"$basetexture" "FFmdls/Items/ammocrate_grenade"
	"$bumpmap" "FFmdls/Items/ammocrate_normal"
	"$normalmapalphaenvmapmask" 1
	"$envmap" "env_cubemap"
	"$envmapcontrast" 1
	"$envmapsaturation" 1
	//"$envmaptint" "[ .5 .5 .5]"
}
