"VertexLitGeneric"
{
	"$baseTexture" "FFmdls/Combine_soldier/combinesoldiersheet_prisonguard"
	"$envmap" "env_cubemap"
	"$envmapcontrast" 1
	"$envmapmask" "FFmdls/Combine_soldier/combinesoldiersheet_mask"
	"$selfillum" 1
}



