"Jeep"
{
	"classname"			"prop_physics_override"
	"type"				"prop"
	"keyvalues"
	{
	"spawnflags" "256"
	"physdamagescale" "0.1"
	"inertiaScale" "1.0"
	"fademindist" "-1"
	"fadescale" "1"
	"model" "models/props_junk/watermelon01.mdl"
	"skin" "0"
	"massScale" "0"
	"ExplodeDamage" "100"
	"ExplodeRadius" "1500"
	"minhealthdmg" "0"
	"health" "5"
	"rendercolor" "0 0 0"
	}
}