"VertexLitGeneric"
{
	"$baseTexture" "models/ill_hanger/vehicles/A10_glass"
	"$translucent" 1
	"$envmap" "env_cubemap"
	"$envmapcontrast" "1.0"
	"$envmaptint" "[1 1 1]"
	"$envmapsaturation" "[1 1 1]"
}
